add data/tek0006.csv

Model,MSO3054
Firmware Version,2.31

Waveform Type,Analog
Point Format,Y
Horizontal Units,s
Horizontal Scale,4e-06
Horizontal Delay,1.63196e-06
Sample Interval,4e-10
Record Length,100000
Gating,0.0% to 100.0%
Probe Attenuation,1
Vertical Units,V
Vertical Offset,0
Vertical Scale,0.05
Vertical Position,-0.1
Label,
TIME,CH1
-1.83680e-05,0.001
-1.83676e-05,0.087
-1.83672e-05,0.055
-1.83668e-05,-0.051
-1.83664e-05,-0.087
-1.83660e-05,-0.001
-1.83656e-05,0.087
-1.83652e-05,0.057
-1.83648e-05,-0.049
-1.83644e-05,-0.089
-1.83640e-05,-0.001
-1.83636e-05,0.087
-1.83632e-05,0.059
-1.83628e-05,-0.047
-1.83624e-05,-0.089
-1.83620e-05,-0.003
-1.83616e-05,0.087
-1.83612e-05,0.063
-1.83608e-05,-0.045
-1.83604e-05,-0.089
-1.83600e-05,-0.007
-1.83596e-05,0.087
-1.83592e-05,0.061
-1.83588e-05,-0.047
-1.83584e-05,-0.089
-1.83580e-05,-0.007
-1.83576e-05,0.085
-1.83572e-05,0.061
-1.83568e-05,-0.045
-1.83564e-05,-0.091
-1.83560e-05,-0.011
-1.83556e-05,0.087
-1.83552e-05,0.067
-1.83548e-05,-0.041
-1.83544e-05,-0.091
-1.83540e-05,-0.011
-1.83536e-05,0.083
-1.83532e-05,0.069
-1.83528e-05,-0.033
-1.83524e-05,-0.087
-1.83520e-05,-0.011
-1.83516e-05,0.085
-1.83512e-05,0.069
-1.83508e-05,-0.039
-1.83504e-05,-0.089
-1.83500e-05,-0.015
-1.83496e-05,0.083
-1.83492e-05,0.073
-1.83488e-05,-0.033
-1.83484e-05,-0.089
-1.83480e-05,-0.017
-1.83476e-05,0.081
-1.83472e-05,0.071
-1.83468e-05,-0.033
-1.83464e-05,-0.089
-1.83460e-05,-0.023
-1.83456e-05,0.077
-1.83452e-05,0.069
-1.83448e-05,-0.033
-1.83444e-05,-0.095
-1.83440e-05,-0.021
-1.83436e-05,0.081
-1.83432e-05,0.077
-1.83428e-05,-0.029
-1.83424e-05,-0.091
-1.83420e-05,-0.025
-1.83416e-05,0.075
-1.83412e-05,0.075
-1.83408e-05,-0.027
-1.83404e-05,-0.089
-1.83400e-05,-0.025
-1.83396e-05,0.077
-1.83392e-05,0.077
-1.83388e-05,-0.023
-1.83384e-05,-0.087
-1.83380e-05,-0.031
-1.83376e-05,0.077
-1.83372e-05,0.077
-1.83368e-05,-0.023
-1.83364e-05,-0.093
-1.83360e-05,-0.031
-1.83356e-05,0.073
-1.83352e-05,0.075
-1.83348e-05,-0.027
-1.83344e-05,-0.091
-1.83340e-05,-0.031
-1.83336e-05,0.069
-1.83332e-05,0.081
-1.83328e-05,-0.021
-1.83324e-05,-0.093
-1.83320e-05,-0.029
-1.83316e-05,0.073
-1.83312e-05,0.079
-1.83308e-05,-0.019
-1.83304e-05,-0.093
-1.83300e-05,-0.039
-1.83296e-05,0.069
-1.83292e-05,0.081
-1.83288e-05,-0.019
-1.83284e-05,-0.093
-1.83280e-05,-0.039
-1.83276e-05,0.065
-1.83272e-05,0.079
-1.83268e-05,-0.017
-1.83264e-05,-0.089
-1.83260e-05,-0.037
-1.83256e-05,0.065
-1.83252e-05,0.081
-1.83248e-05,-0.009
-1.83244e-05,-0.085
-1.83240e-05,-0.041
-1.83236e-05,0.061
-1.83232e-05,0.083
-1.83228e-05,-0.013
-1.83224e-05,-0.091
-1.83220e-05,-0.045
-1.83216e-05,0.065
-1.83212e-05,0.089
-1.83208e-05,-0.007
-1.83204e-05,-0.087
-1.83200e-05,-0.043
-1.83196e-05,0.061
-1.83192e-05,0.087
-1.83188e-05,-0.007
-1.83184e-05,-0.089
-1.83180e-05,-0.047
-1.83176e-05,0.061
-1.83172e-05,0.087
-1.83168e-05,-0.005
-1.83164e-05,-0.089
-1.83160e-05,-0.051
-1.83156e-05,0.061
-1.83152e-05,0.087
-1.83148e-05,-0.005
-1.83144e-05,-0.093
-1.83140e-05,-0.053
-1.83136e-05,0.059
-1.83132e-05,0.085
-1.83128e-05,-0.003
-1.83124e-05,-0.087
-1.83120e-05,-0.047
-1.83116e-05,0.061
-1.83112e-05,0.087
-1.83108e-05,0.001
-1.83104e-05,-0.089
-1.83100e-05,-0.055
-1.83096e-05,0.053
-1.83092e-05,0.087
-1.83088e-05,0.001
-1.83084e-05,-0.089
-1.83080e-05,-0.051
-1.83076e-05,0.059
-1.83072e-05,0.093
-1.83068e-05,0.005
-1.83064e-05,-0.093
-1.83060e-05,-0.059
-1.83056e-05,0.053
-1.83052e-05,0.091
-1.83048e-05,0.007
-1.83044e-05,-0.087
-1.83040e-05,-0.059
-1.83036e-05,0.055
-1.83032e-05,0.095
-1.83028e-05,0.009
-1.83024e-05,-0.083
-1.83020e-05,-0.057
-1.83016e-05,0.051
-1.83012e-05,0.093
-1.83008e-05,0.013
-1.83004e-05,-0.085
-1.83000e-05,-0.059
-1.82996e-05,0.049
-1.82992e-05,0.091
-1.82988e-05,0.011
-1.82984e-05,-0.083
-1.82980e-05,-0.061
-1.82976e-05,0.047
-1.82972e-05,0.091
-1.82968e-05,0.013
-1.82964e-05,-0.079
-1.82960e-05,-0.063
-1.82956e-05,0.045
-1.82952e-05,0.095
-1.82948e-05,0.019
-1.82944e-05,-0.075
-1.82940e-05,-0.061
-1.82936e-05,0.039
-1.82932e-05,0.091
-1.82928e-05,0.017
-1.82924e-05,-0.083
-1.82920e-05,-0.069
-1.82916e-05,0.037
-1.82912e-05,0.091
-1.82908e-05,0.023
-1.82904e-05,-0.073
-1.82900e-05,-0.063
-1.82896e-05,0.037
-1.82892e-05,0.093
-1.82888e-05,0.019
-1.82884e-05,-0.081
-1.82880e-05,-0.067
-1.82876e-05,0.037
-1.82872e-05,0.089
-1.82868e-05,0.019
-1.82864e-05,-0.077
-1.82860e-05,-0.067
-1.82856e-05,0.033
-1.82852e-05,0.093
-1.82848e-05,0.027
-1.82844e-05,-0.073
-1.82840e-05,-0.069
-1.82836e-05,0.033
-1.82832e-05,0.093
-1.82828e-05,0.029
-1.82824e-05,-0.075
-1.82820e-05,-0.073
-1.82816e-05,0.037
-1.82812e-05,0.097
-1.82808e-05,0.033
-1.82804e-05,-0.073
-1.82800e-05,-0.073
-1.82796e-05,0.029
-1.82792e-05,0.095
-1.82788e-05,0.031
-1.82784e-05,-0.075
-1.82780e-05,-0.075
-1.82776e-05,0.027
-1.82772e-05,0.091
-1.82768e-05,0.033
-1.82764e-05,-0.069
-1.82760e-05,-0.075
-1.82756e-05,0.029
-1.82752e-05,0.095
-1.82748e-05,0.035
-1.82744e-05,-0.065
-1.82740e-05,-0.075
-1.82736e-05,0.021
-1.82732e-05,0.091
-1.82728e-05,0.039
-1.82724e-05,-0.069
-1.82720e-05,-0.077
-1.82716e-05,0.019
-1.82712e-05,0.093
-1.82708e-05,0.041
-1.82704e-05,-0.063
-1.82700e-05,-0.081
-1.82696e-05,0.021
-1.82692e-05,0.097
-1.82688e-05,0.039
-1.82684e-05,-0.067
-1.82680e-05,-0.085
-1.82676e-05,0.017
-1.82672e-05,0.093
-1.82668e-05,0.041
-1.82664e-05,-0.061
-1.82660e-05,-0.081
-1.82656e-05,0.017
-1.82652e-05,0.095
-1.82648e-05,0.045
-1.82644e-05,-0.063
-1.82640e-05,-0.083
-1.82636e-05,0.015
-1.82632e-05,0.091
-1.82628e-05,0.047
-1.82624e-05,-0.067
-1.82620e-05,-0.087
-1.82616e-05,0.009
-1.82612e-05,0.089
-1.82608e-05,0.049
-1.82604e-05,-0.059
-1.82600e-05,-0.085
-1.82596e-05,0.011
-1.82592e-05,0.095
-1.82588e-05,0.049
-1.82584e-05,-0.059
-1.82580e-05,-0.085
-1.82576e-05,0.009
-1.82572e-05,0.093
-1.82568e-05,0.051
-1.82564e-05,-0.055
-1.82560e-05,-0.083
-1.82556e-05,0.007
-1.82552e-05,0.091
-1.82548e-05,0.053
-1.82544e-05,-0.057
-1.82540e-05,-0.091
-1.82536e-05,-0.001
-1.82532e-05,0.087
-1.82528e-05,0.053
-1.82524e-05,-0.053
-1.82520e-05,-0.085
-1.82516e-05,0.001
-1.82512e-05,0.091
-1.82508e-05,0.055
-1.82504e-05,-0.055
-1.82500e-05,-0.085
-1.82496e-05,0.003
-1.82492e-05,0.087
-1.82488e-05,0.057
-1.82484e-05,-0.047
-1.82480e-05,-0.089
-1.82476e-05,-0.001
-1.82472e-05,0.087
-1.82468e-05,0.059
-1.82464e-05,-0.049
-1.82460e-05,-0.091
-1.82456e-05,-0.003
-1.82452e-05,0.087
-1.82448e-05,0.059
-1.82444e-05,-0.051
-1.82440e-05,-0.093
-1.82436e-05,-0.009
-1.82432e-05,0.085
-1.82428e-05,0.061
-1.82424e-05,-0.045
-1.82420e-05,-0.089
-1.82416e-05,-0.007
-1.82412e-05,0.083
-1.82408e-05,0.065
-1.82404e-05,-0.047
-1.82400e-05,-0.091
-1.82396e-05,-0.011
-1.82392e-05,0.087
-1.82388e-05,0.065
-1.82384e-05,-0.041
-1.82380e-05,-0.089
-1.82376e-05,-0.011
-1.82372e-05,0.083
-1.82368e-05,0.067
-1.82364e-05,-0.041
-1.82360e-05,-0.089
-1.82356e-05,-0.009
-1.82352e-05,0.083
-1.82348e-05,0.069
-1.82344e-05,-0.041
-1.82340e-05,-0.091
-1.82336e-05,-0.017
-1.82332e-05,0.081
-1.82328e-05,0.071
-1.82324e-05,-0.033
-1.82320e-05,-0.089
-1.82316e-05,-0.021
-1.82312e-05,0.083
-1.82308e-05,0.075
-1.82304e-05,-0.033
-1.82300e-05,-0.091
-1.82296e-05,-0.017
-1.82292e-05,0.081
-1.82288e-05,0.075
-1.82284e-05,-0.031
-1.82280e-05,-0.091
-1.82276e-05,-0.021
-1.82272e-05,0.081
-1.82268e-05,0.073
-1.82264e-05,-0.031
-1.82260e-05,-0.095
-1.82256e-05,-0.027
-1.82252e-05,0.077
-1.82248e-05,0.075
-1.82244e-05,-0.027
-1.82240e-05,-0.087
-1.82236e-05,-0.023
-1.82232e-05,0.077
-1.82228e-05,0.075
-1.82224e-05,-0.029
-1.82220e-05,-0.091
-1.82216e-05,-0.027
-1.82212e-05,0.077
-1.82208e-05,0.079
-1.82204e-05,-0.023
-1.82200e-05,-0.091
-1.82196e-05,-0.027
-1.82192e-05,0.075
-1.82188e-05,0.077
-1.82184e-05,-0.021
-1.82180e-05,-0.089
-1.82176e-05,-0.027
-1.82172e-05,0.073
-1.82168e-05,0.081
-1.82164e-05,-0.015
-1.82160e-05,-0.091
-1.82156e-05,-0.037
-1.82152e-05,0.077
-1.82148e-05,0.083
-1.82144e-05,-0.017
-1.82140e-05,-0.087
-1.82136e-05,-0.033
-1.82132e-05,0.073
-1.82128e-05,0.081
-1.82124e-05,-0.015
-1.82120e-05,-0.089
-1.82116e-05,-0.037
-1.82112e-05,0.067
-1.82108e-05,0.085
-1.82104e-05,-0.015
-1.82100e-05,-0.087
-1.82096e-05,-0.035
-1.82092e-05,0.067
-1.82088e-05,0.081
-1.82084e-05,-0.013
-1.82080e-05,-0.087
-1.82076e-05,-0.037
-1.82072e-05,0.067
-1.82068e-05,0.085
-1.82064e-05,-0.007
-1.82060e-05,-0.087
-1.82056e-05,-0.041
-1.82052e-05,0.067
-1.82048e-05,0.085
-1.82044e-05,-0.015
-1.82040e-05,-0.089
-1.82036e-05,-0.043
-1.82032e-05,0.067
-1.82028e-05,0.087
-1.82024e-05,-0.007
-1.82020e-05,-0.089
-1.82016e-05,-0.045
-1.82012e-05,0.063
-1.82008e-05,0.089
-1.82004e-05,-0.001
-1.82000e-05,-0.087
-1.81996e-05,-0.049
-1.81992e-05,0.059
-1.81988e-05,0.087
-1.81984e-05,-0.001
-1.81980e-05,-0.087
-1.81976e-05,-0.043
-1.81972e-05,0.063
-1.81968e-05,0.089
-1.81964e-05,0.001
-1.81960e-05,-0.085
-1.81956e-05,-0.057
-1.81952e-05,0.049
-1.81948e-05,0.087
-1.81944e-05,-0.001
-1.81940e-05,-0.091
-1.81936e-05,-0.057
-1.81932e-05,0.057
-1.81928e-05,0.093
-1.81924e-05,0.005
-1.81920e-05,-0.085
-1.81916e-05,-0.055
-1.81912e-05,0.057
-1.81908e-05,0.091
-1.81904e-05,0.001
-1.81900e-05,-0.089
-1.81896e-05,-0.055
-1.81892e-05,0.049
-1.81888e-05,0.089
-1.81884e-05,0.007
-1.81880e-05,-0.085
-1.81876e-05,-0.057
-1.81872e-05,0.053
-1.81868e-05,0.089
-1.81864e-05,0.007
-1.81860e-05,-0.081
-1.81856e-05,-0.061
-1.81852e-05,0.045
-1.81848e-05,0.091
-1.81844e-05,0.009
-1.81840e-05,-0.083
-1.81836e-05,-0.059
-1.81832e-05,0.047
-1.81828e-05,0.089
-1.81824e-05,0.009
-1.81820e-05,-0.083
-1.81816e-05,-0.065
-1.81812e-05,0.043
-1.81808e-05,0.093
-1.81804e-05,0.013
-1.81800e-05,-0.081
-1.81796e-05,-0.061
-1.81792e-05,0.043
-1.81788e-05,0.097
-1.81784e-05,0.015
-1.81780e-05,-0.083
-1.81776e-05,-0.063
-1.81772e-05,0.045
-1.81768e-05,0.097
-1.81764e-05,0.017
-1.81760e-05,-0.079
-1.81756e-05,-0.063
-1.81752e-05,0.041
-1.81748e-05,0.099
-1.81744e-05,0.023
-1.81740e-05,-0.077
-1.81736e-05,-0.067
-1.81732e-05,0.041
-1.81728e-05,0.097
-1.81724e-05,0.025
-1.81720e-05,-0.073
-1.81716e-05,-0.067
-1.81712e-05,0.035
-1.81708e-05,0.091
-1.81704e-05,0.021
-1.81700e-05,-0.079
-1.81696e-05,-0.073
-1.81692e-05,0.029
-1.81688e-05,0.091
-1.81684e-05,0.027
-1.81680e-05,-0.067
-1.81676e-05,-0.067
-1.81672e-05,0.033
-1.81668e-05,0.095
-1.81664e-05,0.033
-1.81660e-05,-0.071
-1.81656e-05,-0.071
-1.81652e-05,0.035
-1.81648e-05,0.095
-1.81644e-05,0.031
-1.81640e-05,-0.073
-1.81636e-05,-0.073
-1.81632e-05,0.031
-1.81628e-05,0.093
-1.81624e-05,0.029
-1.81620e-05,-0.071
-1.81616e-05,-0.079
-1.81612e-05,0.023
-1.81608e-05,0.091
-1.81604e-05,0.029
-1.81600e-05,-0.073
-1.81596e-05,-0.075
-1.81592e-05,0.025
-1.81588e-05,0.095
-1.81584e-05,0.035
-1.81580e-05,-0.071
-1.81576e-05,-0.075
-1.81572e-05,0.029
-1.81568e-05,0.099
-1.81564e-05,0.041
-1.81560e-05,-0.065
-1.81556e-05,-0.079
-1.81552e-05,0.025
-1.81548e-05,0.097
-1.81544e-05,0.043
-1.81540e-05,-0.067
-1.81536e-05,-0.083
-1.81532e-05,0.021
-1.81528e-05,0.093
-1.81524e-05,0.043
-1.81520e-05,-0.063
-1.81516e-05,-0.081
-1.81512e-05,0.013
-1.81508e-05,0.091
-1.81504e-05,0.045
-1.81500e-05,-0.063
-1.81496e-05,-0.081
-1.81492e-05,0.015
-1.81488e-05,0.093
-1.81484e-05,0.045
-1.81480e-05,-0.063
-1.81476e-05,-0.083
-1.81472e-05,0.011
-1.81468e-05,0.091
-1.81464e-05,0.045
-1.81460e-05,-0.059
-1.81456e-05,-0.081
-1.81452e-05,0.011
-1.81448e-05,0.091
-1.81444e-05,0.049
-1.81440e-05,-0.063
-1.81436e-05,-0.085
-1.81432e-05,0.009
-1.81428e-05,0.089
-1.81424e-05,0.049
-1.81420e-05,-0.057
-1.81416e-05,-0.089
-1.81412e-05,0.007
-1.81408e-05,0.095
-1.81404e-05,0.055
-1.81400e-05,-0.055
-1.81396e-05,-0.087
-1.81392e-05,0.003
-1.81388e-05,0.087
-1.81384e-05,0.053
-1.81380e-05,-0.053
-1.81376e-05,-0.083
-1.81372e-05,0.005
-1.81368e-05,0.091
-1.81364e-05,0.055
-1.81360e-05,-0.057
-1.81356e-05,-0.085
-1.81352e-05,0.001
-1.81348e-05,0.087
-1.81344e-05,0.049
-1.81340e-05,-0.051
-1.81336e-05,-0.081
-1.81332e-05,-0.001
-1.81328e-05,0.081
-1.81324e-05,0.057
-1.81320e-05,-0.047
-1.81316e-05,-0.087
-1.81312e-05,-0.001
-1.81308e-05,0.091
-1.81304e-05,0.057
-1.81300e-05,-0.047
-1.81296e-05,-0.091
-1.81292e-05,-0.005
-1.81288e-05,0.087
-1.81284e-05,0.061
-1.81280e-05,-0.049
-1.81276e-05,-0.091
-1.81272e-05,-0.009
-1.81268e-05,0.081
-1.81264e-05,0.061
-1.81260e-05,-0.043
-1.81256e-05,-0.089
-1.81252e-05,-0.007
-1.81248e-05,0.085
-1.81244e-05,0.059
-1.81240e-05,-0.045
-1.81236e-05,-0.087
-1.81232e-05,-0.013
-1.81228e-05,0.083
-1.81224e-05,0.065
-1.81220e-05,-0.041
-1.81216e-05,-0.089
-1.81212e-05,-0.013
-1.81208e-05,0.087
-1.81204e-05,0.071
-1.81200e-05,-0.037
-1.81196e-05,-0.089
-1.81192e-05,-0.011
-1.81188e-05,0.077
-1.81184e-05,0.061
-1.81180e-05,-0.039
-1.81176e-05,-0.093
-1.81172e-05,-0.017
-1.81168e-05,0.083
-1.81164e-05,0.073
-1.81160e-05,-0.033
-1.81156e-05,-0.091
-1.81152e-05,-0.017
-1.81148e-05,0.081
-1.81144e-05,0.071
-1.81140e-05,-0.035
-1.81136e-05,-0.095
-1.81132e-05,-0.025
-1.81128e-05,0.077
-1.81124e-05,0.071
-1.81120e-05,-0.033
-1.81116e-05,-0.089
-1.81112e-05,-0.023
-1.81108e-05,0.081
-1.81104e-05,0.073
-1.81100e-05,-0.033
-1.81096e-05,-0.093
-1.81092e-05,-0.023
-1.81088e-05,0.073
-1.81084e-05,0.073
-1.81080e-05,-0.027
-1.81076e-05,-0.091
-1.81072e-05,-0.027
-1.81068e-05,0.073
-1.81064e-05,0.075
-1.81060e-05,-0.027
-1.81056e-05,-0.095
-1.81052e-05,-0.031
-1.81048e-05,0.073
-1.81044e-05,0.075
-1.81040e-05,-0.025
-1.81036e-05,-0.091
-1.81032e-05,-0.031
-1.81028e-05,0.075
-1.81024e-05,0.079
-1.81020e-05,-0.019
-1.81016e-05,-0.091
-1.81012e-05,-0.029
-1.81008e-05,0.071
-1.81004e-05,0.081
-1.81000e-05,-0.019
-1.80996e-05,-0.089
-1.80992e-05,-0.031
-1.80988e-05,0.071
-1.80984e-05,0.077
-1.80980e-05,-0.023
-1.80976e-05,-0.095
-1.80972e-05,-0.037
-1.80968e-05,0.067
-1.80964e-05,0.083
-1.80960e-05,-0.015
-1.80956e-05,-0.095
-1.80952e-05,-0.037
-1.80948e-05,0.071
-1.80944e-05,0.085
-1.80940e-05,-0.007
-1.80936e-05,-0.087
-1.80932e-05,-0.041
-1.80928e-05,0.065
-1.80924e-05,0.083
-1.80920e-05,-0.013
-1.80916e-05,-0.087
-1.80912e-05,-0.035
-1.80908e-05,0.071
-1.80904e-05,0.087
-1.80900e-05,-0.011
-1.80896e-05,-0.093
-1.80892e-05,-0.043
-1.80888e-05,0.063
-1.80884e-05,0.083
-1.80880e-05,-0.011
-1.80876e-05,-0.093
-1.80872e-05,-0.049
-1.80868e-05,0.059
-1.80864e-05,0.083
-1.80860e-05,-0.003
-1.80856e-05,-0.085
-1.80852e-05,-0.043
-1.80848e-05,0.061
-1.80844e-05,0.083
-1.80840e-05,-0.005
-1.80836e-05,-0.087
-1.80832e-05,-0.047
-1.80828e-05,0.063
-1.80824e-05,0.091
-1.80820e-05,0.003
-1.80816e-05,-0.085
-1.80812e-05,-0.053
-1.80808e-05,0.057
-1.80804e-05,0.087
-1.80800e-05,-0.003
-1.80796e-05,-0.087
-1.80792e-05,-0.049
-1.80788e-05,0.051
-1.80784e-05,0.083
-1.80780e-05,0.003
-1.80776e-05,-0.085
-1.80772e-05,-0.051
-1.80768e-05,0.059
-1.80764e-05,0.089
-1.80760e-05,0.005
-1.80756e-05,-0.085
-1.80752e-05,-0.055
-1.80748e-05,0.057
-1.80744e-05,0.095
-1.80740e-05,0.009
-1.80736e-05,-0.083
-1.80732e-05,-0.055
-1.80728e-05,0.051
-1.80724e-05,0.093
-1.80720e-05,0.007
-1.80716e-05,-0.087
-1.80712e-05,-0.057
-1.80708e-05,0.047
-1.80704e-05,0.089
-1.80700e-05,0.009
-1.80696e-05,-0.085
-1.80692e-05,-0.059
-1.80688e-05,0.047
-1.80684e-05,0.093
-1.80680e-05,0.013
-1.80676e-05,-0.083
-1.80672e-05,-0.061
-1.80668e-05,0.049
-1.80664e-05,0.093
-1.80660e-05,0.015
-1.80656e-05,-0.085
-1.80652e-05,-0.065
-1.80648e-05,0.049
-1.80644e-05,0.091
-1.80640e-05,0.017
-1.80636e-05,-0.079
-1.80632e-05,-0.063
-1.80628e-05,0.041
-1.80624e-05,0.093
-1.80620e-05,0.019
-1.80616e-05,-0.075
-1.80612e-05,-0.063
-1.80608e-05,0.037
-1.80604e-05,0.089
-1.80600e-05,0.017
-1.80596e-05,-0.081
-1.80592e-05,-0.069
-1.80588e-05,0.039
-1.80584e-05,0.089
-1.80580e-05,0.019
-1.80576e-05,-0.079
-1.80572e-05,-0.071
-1.80568e-05,0.031
-1.80564e-05,0.095
-1.80560e-05,0.027
-1.80556e-05,-0.079
-1.80552e-05,-0.069
-1.80548e-05,0.037
-1.80544e-05,0.095
-1.80540e-05,0.027
-1.80536e-05,-0.073
-1.80532e-05,-0.065
-1.80528e-05,0.037
-1.80524e-05,0.099
-1.80520e-05,0.029
-1.80516e-05,-0.075
-1.80512e-05,-0.075
-1.80508e-05,0.033
-1.80504e-05,0.095
-1.80500e-05,0.027
-1.80496e-05,-0.075
-1.80492e-05,-0.073
-1.80488e-05,0.031
-1.80484e-05,0.093
-1.80480e-05,0.031
-1.80476e-05,-0.069
-1.80472e-05,-0.075
-1.80468e-05,0.023
-1.80464e-05,0.091
-1.80460e-05,0.033
-1.80456e-05,-0.073
-1.80452e-05,-0.081
-1.80448e-05,0.029
-1.80444e-05,0.099
-1.80440e-05,0.033
-1.80436e-05,-0.069
-1.80432e-05,-0.075
-1.80428e-05,0.025
-1.80424e-05,0.093
-1.80420e-05,0.037
-1.80416e-05,-0.067
-1.80412e-05,-0.077
-1.80408e-05,0.023
-1.80404e-05,0.093
-1.80400e-05,0.035
-1.80396e-05,-0.073
-1.80392e-05,-0.081
-1.80388e-05,0.021
-1.80384e-05,0.095
-1.80380e-05,0.041
-1.80376e-05,-0.067
-1.80372e-05,-0.079
-1.80368e-05,0.019
-1.80364e-05,0.095
-1.80360e-05,0.037
-1.80356e-05,-0.067
-1.80352e-05,-0.083
-1.80348e-05,0.017
-1.80344e-05,0.091
-1.80340e-05,0.043
-1.80336e-05,-0.057
-1.80332e-05,-0.079
-1.80328e-05,0.011
-1.80324e-05,0.097
-1.80320e-05,0.043
-1.80316e-05,-0.063
-1.80312e-05,-0.081
-1.80308e-05,0.015
-1.80304e-05,0.089
-1.80300e-05,0.049
-1.80296e-05,-0.057
-1.80292e-05,-0.085
-1.80288e-05,0.009
-1.80284e-05,0.091
-1.80280e-05,0.049
-1.80276e-05,-0.059
-1.80272e-05,-0.081
-1.80268e-05,0.009
-1.80264e-05,0.093
-1.80260e-05,0.051
-1.80256e-05,-0.057
-1.80252e-05,-0.085
-1.80248e-05,0.009
-1.80244e-05,0.091
-1.80240e-05,0.049
-1.80236e-05,-0.057
-1.80232e-05,-0.087
-1.80228e-05,0.005
-1.80224e-05,0.089
-1.80220e-05,0.053
-1.80216e-05,-0.055
-1.80212e-05,-0.089
-1.80208e-05,0.001
-1.80204e-05,0.089
-1.80200e-05,0.049
-1.80196e-05,-0.053
-1.80192e-05,-0.085
-1.80188e-05,0.001
-1.80184e-05,0.091
-1.80180e-05,0.057
-1.80176e-05,-0.053
-1.80172e-05,-0.087
-1.80168e-05,0.005
-1.80164e-05,0.093
-1.80160e-05,0.061
-1.80156e-05,-0.049
-1.80152e-05,-0.089
-1.80148e-05,-0.005
-1.80144e-05,0.085
-1.80140e-05,0.061
-1.80136e-05,-0.049
-1.80132e-05,-0.087
-1.80128e-05,-0.005
-1.80124e-05,0.085
-1.80120e-05,0.059
-1.80116e-05,-0.049
-1.80112e-05,-0.089
-1.80108e-05,-0.009
-1.80104e-05,0.087
-1.80100e-05,0.071
-1.80096e-05,-0.039
-1.80092e-05,-0.085
-1.80088e-05,-0.005
-1.80084e-05,0.087
-1.80080e-05,0.065
-1.80076e-05,-0.045
-1.80072e-05,-0.089
-1.80068e-05,-0.013
-1.80064e-05,0.081
-1.80060e-05,0.065
-1.80056e-05,-0.043
-1.80052e-05,-0.089
-1.80048e-05,-0.009
-1.80044e-05,0.089
-1.80040e-05,0.071
-1.80036e-05,-0.039
-1.80032e-05,-0.091
-1.80028e-05,-0.015
-1.80024e-05,0.081
-1.80020e-05,0.069
-1.80016e-05,-0.039
-1.80012e-05,-0.091
-1.80008e-05,-0.017
-1.80004e-05,0.081
-1.80000e-05,0.071
-1.79996e-05,-0.033
-1.79992e-05,-0.089
-1.79988e-05,-0.013
-1.79984e-05,0.083
-1.79980e-05,0.073
-1.79976e-05,-0.033
-1.79972e-05,-0.095
-1.79968e-05,-0.025
-1.79964e-05,0.075
-1.79960e-05,0.069
-1.79956e-05,-0.031
-1.79952e-05,-0.089
-1.79948e-05,-0.023
-1.79944e-05,0.079
-1.79940e-05,0.073
-1.79936e-05,-0.029
-1.79932e-05,-0.089
-1.79928e-05,-0.023
-1.79924e-05,0.077
-1.79920e-05,0.071
-1.79916e-05,-0.031
-1.79912e-05,-0.089
-1.79908e-05,-0.027
-1.79904e-05,0.075
-1.79900e-05,0.075
-1.79896e-05,-0.027
-1.79892e-05,-0.091
-1.79888e-05,-0.031
-1.79884e-05,0.073
-1.79880e-05,0.077
-1.79876e-05,-0.027
-1.79872e-05,-0.093
-1.79868e-05,-0.029
-1.79864e-05,0.071
-1.79860e-05,0.079
-1.79856e-05,-0.021
-1.79852e-05,-0.089
-1.79848e-05,-0.031
-1.79844e-05,0.073
-1.79840e-05,0.077
-1.79836e-05,-0.021
-1.79832e-05,-0.089
-1.79828e-05,-0.033
-1.79824e-05,0.067
-1.79820e-05,0.079
-1.79816e-05,-0.019
-1.79812e-05,-0.093
-1.79808e-05,-0.035
-1.79804e-05,0.071
-1.79800e-05,0.085
-1.79796e-05,-0.015
-1.79792e-05,-0.089
-1.79788e-05,-0.037
-1.79784e-05,0.067
-1.79780e-05,0.081
-1.79776e-05,-0.015
-1.79772e-05,-0.093
-1.79768e-05,-0.037
-1.79764e-05,0.069
-1.79760e-05,0.085
-1.79756e-05,-0.013
-1.79752e-05,-0.091
-1.79748e-05,-0.041
-1.79744e-05,0.063
-1.79740e-05,0.081
-1.79736e-05,-0.011
-1.79732e-05,-0.087
-1.79728e-05,-0.043
-1.79724e-05,0.063
-1.79720e-05,0.087
-1.79716e-05,-0.005
-1.79712e-05,-0.087
-1.79708e-05,-0.041
-1.79704e-05,0.065
-1.79700e-05,0.085
-1.79696e-05,-0.009
-1.79692e-05,-0.093
-1.79688e-05,-0.047
-1.79684e-05,0.059
-1.79680e-05,0.083
-1.79676e-05,-0.007
-1.79672e-05,-0.089
-1.79668e-05,-0.051
-1.79664e-05,0.061
-1.79660e-05,0.089
-1.79656e-05,-0.005
-1.79652e-05,-0.087
