sequence/1.8m cavity/ALL0018/F0018CH1.CSV

Record Length,2.500000e+03,,  -0.000000125000,   0.84000,
Sample Interval,1.000000e-10,,  -0.000000124900,   0.83200,
Trigger Point,1.250000000000e+03,,  -0.000000124800,   0.83200,
,,,  -0.000000124700,   0.82400,
,,,  -0.000000124600,   0.82400,
,,,  -0.000000124500,   0.81600,
Source,CH1,,  -0.000000124400,   0.80800,
Vertical Units,V,,  -0.000000124300,   0.80800,
Vertical Scale,2.000000e-01,,  -0.000000124200,   0.80000,
Vertical Offset,-9.360000e-01,,  -0.000000124100,   0.80000,
Horizontal Units,s,,  -0.000000124000,   0.79200,
Horizontal Scale,2.500000e-08,,  -0.000000123900,   0.79200,
Pt Fmt,Y,,  -0.000000123800,   0.78400,
Yzero,0.000000e+00,,  -0.000000123700,   0.77600,
Probe Atten,1.000000e+01,,  -0.000000123600,   0.77600,
Firmware Version,FV:v6.08,,  -0.000000123500,   0.76800,
,,,-00.000000123400,   0.76000,
,,,-00.000000123300,   0.75200,
,,,-00.000000123200,   0.74400,
,,,-00.000000123100,   0.73600,
,,,-00.000000123000,   0.72800,
,,,-00.000000122900,   0.72000,
,,,-00.000000122800,   0.71200,
,,,-00.000000122700,   0.70400,
,,,-00.000000122600,   0.70400,
,,,-00.000000122500,   0.69600,
,,,-00.000000122400,   0.68800,
,,,-00.000000122300,   0.68000,
,,,-00.000000122200,   0.67200,
,,,-00.000000122100,   0.67200,
,,,-00.000000122000,   0.66400,
,,,-00.000000121900,   0.65600,
,,,-00.000000121800,   0.65600,
,,,-00.000000121700,   0.64800,
,,,-00.000000121600,   0.64800,
,,,-00.000000121500,   0.64000,
,,,-00.000000121400,   0.64000,
,,,-00.000000121300,   0.64000,
,,,-00.000000121200,   0.64000,
,,,-00.000000121100,   0.64800,
,,,-00.000000121000,   0.64800,
,,,-00.000000120900,   0.65600,
,,,-00.000000120800,   0.66400,
,,,-00.000000120700,   0.68000,
,,,-00.000000120600,   0.69600,
,,,-00.000000120500,   0.70400,
,,,-00.000000120400,   0.72000,
,,,-00.000000120300,   0.74400,
,,,-00.000000120200,   0.76000,
,,,-00.000000120100,   0.78400,
,,,-00.000000120000,   0.80800,
,,,-00.000000119900,   0.83200,
,,,-00.000000119800,   0.85600,
,,,-00.000000119700,   0.88000,
,,,-00.000000119600,   0.91200,
,,,-00.000000119500,   0.93600,
,,,-00.000000119400,   0.96000,
,,,-00.000000119300,   0.99200,
,,,-00.000000119200,   1.01600,
,,,-00.000000119100,   1.04800,
,,,-00.000000119000,   1.07200,
,,,-00.000000118900,   1.09600,
,,,-00.000000118800,   1.12800,
,,,-00.000000118700,   1.15200,
,,,-00.000000118600,   1.17600,
,,,-00.000000118500,   1.19200,
,,,-00.000000118400,   1.21600,
,,,-00.000000118300,   1.23200,
,,,-00.000000118200,   1.25600,
,,,-00.000000118100,   1.27200,
,,,-00.000000118000,   1.28000,
,,,-00.000000117900,   1.29600,
,,,-00.000000117800,   1.30400,
,,,-00.000000117700,   1.31200,
,,,-00.000000117600,   1.32000,
,,,-00.000000117500,   1.32000,
,,,-00.000000117400,   1.32000,
,,,-00.000000117300,   1.32000,
,,,-00.000000117200,   1.32000,
,,,-00.000000117100,   1.32000,
,,,-00.000000117000,   1.31200,
,,,-00.000000116900,   1.30400,
,,,-00.000000116800,   1.29600,
,,,-00.000000116700,   1.28000,
,,,-00.000000116600,   1.27200,
,,,-00.000000116500,   1.25600,
,,,-00.000000116400,   1.24000,
,,,-00.000000116300,   1.21600,
,,,-00.000000116200,   1.20000,
,,,-00.000000116100,   1.18400,
,,,-00.000000116000,   1.16000,
,,,-00.000000115900,   1.13600,
,,,-00.000000115800,   1.12000,
,,,-00.000000115700,   1.09600,
,,,-00.000000115600,   1.08000,
,,,-00.000000115500,   1.05600,
,,,-00.000000115400,   1.04000,
,,,-00.000000115300,   1.02400,
,,,-00.000000115200,   1.01600,
,,,-00.000000115100,   1.00000,
,,,-00.000000115000,   0.97600,
,,,-00.000000114900,   0.96000,
,,,-00.000000114800,   0.94400,
,,,-00.000000114700,   0.92800,
,,,-00.000000114600,   0.92000,
,,,-00.000000114500,   0.90400,
,,,-00.000000114400,   0.89600,
,,,-00.000000114300,   0.88800,
,,,-00.000000114200,   0.88000,
,,,-00.000000114100,   0.87200,
,,,-00.000000114000,   0.86400,
,,,-00.000000113900,   0.85600,
,,,-00.000000113800,   0.84800,
,,,-00.000000113700,   0.84000,
,,,-00.000000113600,   0.84000,
,,,-00.000000113500,   0.83200,
,,,-00.000000113400,   0.83200,
,,,-00.000000113300,   0.82400,
,,,-00.000000113200,   0.82400,
,,,-00.000000113100,   0.82400,
,,,-00.000000113000,   0.81600,
,,,-00.000000112900,   0.81600,
,,,-00.000000112800,   0.81600,
,,,-00.000000112700,   0.80800,
,,,-00.000000112600,   0.80800,
,,,-00.000000112500,   0.80000,
,,,-00.000000112400,   0.79200,
,,,-00.000000112300,   0.79200,
,,,-00.000000112200,   0.78400,
,,,-00.000000112100,   0.78400,
,,,-00.000000112000,   0.77600,
,,,-00.000000111900,   0.77600,
,,,-00.000000111800,   0.76800,
,,,-00.000000111700,   0.76000,
,,,-00.000000111600,   0.76000,
,,,-00.000000111500,   0.75200,
,,,-00.000000111400,   0.73600,
,,,-00.000000111300,   0.72800,
,,,-00.000000111200,   0.72000,
,,,-00.000000111100,   0.71200,
,,,-00.000000111000,   0.69600,
,,,-00.000000110900,   0.68800,
,,,-00.000000110800,   0.68000,
,,,-00.000000110700,   0.67200,
,,,-00.000000110600,   0.67200,
,,,-00.000000110500,   0.66400,
,,,-00.000000110400,   0.65600,
,,,-00.000000110300,   0.65600,
,,,-00.000000110200,   0.65600,
,,,-00.000000110100,   0.65600,
,,,-00.000000110000,   0.64800,
,,,-00.000000109900,   0.64800,
,,,-00.000000109800,   0.64800,
,,,-00.000000109700,   0.64800,
,,,-00.000000109600,   0.65600,
,,,-00.000000109500,   0.65600,
,,,-00.000000109400,   0.65600,
,,,-00.000000109300,   0.66400,
,,,-00.000000109200,   0.67200,
,,,-00.000000109100,   0.68000,
,,,-00.000000109000,   0.68800,
,,,-00.000000108900,   0.69600,
,,,-00.000000108800,   0.71200,
,,,-00.000000108700,   0.72800,
,,,-00.000000108600,   0.75200,
,,,-00.000000108500,   0.76800,
,,,-00.000000108400,   0.79200,
,,,-00.000000108300,   0.80800,
,,,-00.000000108200,   0.83200,
,,,-00.000000108100,   0.86400,
,,,-00.000000108000,   0.88800,
,,,-00.000000107900,   0.91200,
,,,-00.000000107800,   0.94400,
,,,-00.000000107700,   0.96800,
,,,-00.000000107600,   1.00000,
,,,-00.000000107500,   1.02400,
,,,-00.000000107400,   1.05600,
,,,-00.000000107300,   1.08800,
,,,-00.000000107200,   1.11200,
,,,-00.000000107100,   1.14400,
,,,-00.000000107000,   1.16800,
,,,-00.000000106900,   1.18400,
,,,-00.000000106800,   1.20800,
,,,-00.000000106700,   1.22400,
,,,-00.000000106600,   1.24800,
,,,-00.000000106500,   1.26400,
,,,-00.000000106400,   1.28000,
,,,-00.000000106300,   1.29600,
,,,-00.000000106200,   1.31200,
,,,-00.000000106100,   1.32800,
,,,-00.000000106000,   1.33600,
,,,-00.000000105900,   1.34400,
,,,-00.000000105800,   1.34400,
,,,-00.000000105700,   1.34400,
,,,-00.000000105600,   1.34400,
,,,-00.000000105500,   1.33600,
,,,-00.000000105400,   1.32800,
,,,-00.000000105300,   1.31200,
,,,-00.000000105200,   1.29600,
,,,-00.000000105100,   1.28800,
,,,-00.000000105000,   1.27200,
,,,-00.000000104900,   1.25600,
,,,-00.000000104800,   1.24800,
,,,-00.000000104700,   1.23200,
,,,-00.000000104600,   1.21600,
,,,-00.000000104500,   1.19200,
,,,-00.000000104400,   1.17600,
,,,-00.000000104300,   1.16000,
,,,-00.000000104200,   1.13600,
,,,-00.000000104100,   1.12000,
,,,-00.000000104000,   1.09600,
,,,-00.000000103900,   1.07200,
,,,-00.000000103800,   1.05600,
,,,-00.000000103700,   1.03200,
,,,-00.000000103600,   1.01600,
,,,-00.000000103500,   0.99200,
,,,-00.000000103400,   0.97600,
,,,-00.000000103300,   0.96000,
,,,-00.000000103200,   0.94400,
,,,-00.000000103100,   0.93600,
,,,-00.000000103000,   0.92000,
,,,-00.000000102900,   0.90400,
,,,-00.000000102800,   0.89600,
,,,-00.000000102700,   0.88800,
,,,-00.000000102600,   0.88000,
,,,-00.000000102500,   0.87200,
,,,-00.000000102400,   0.86400,
,,,-00.000000102300,   0.85600,
,,,-00.000000102200,   0.84800,
,,,-00.000000102100,   0.84800,
,,,-00.000000102000,   0.84000,
,,,-00.000000101900,   0.84000,
,,,-00.000000101800,   0.83200,
,,,-00.000000101700,   0.83200,
,,,-00.000000101600,   0.83200,
,,,-00.000000101500,   0.82400,
,,,-00.000000101400,   0.82400,
,,,-00.000000101300,   0.81600,
,,,-00.000000101200,   0.81600,
,,,-00.000000101100,   0.81600,
,,,-00.000000101000,   0.80800,
,,,-00.000000100900,   0.80800,
,,,-00.000000100800,   0.80800,
,,,-00.000000100700,   0.80000,
,,,-00.000000100600,   0.80000,
,,,-00.000000100500,   0.79200,
,,,-00.000000100400,   0.78400,
,,,-00.000000100300,   0.77600,
,,,-00.000000100200,   0.77600,
,,,-00.000000100100,   0.76800,
,,,-00.000000100000,   0.76000,
,,,-00.000000099900,   0.75200,
,,,-00.000000099800,   0.74400,
,,,-00.000000099700,   0.73600,
,,,-00.000000099600,   0.72800,
,,,-00.000000099500,   0.72000,
,,,-00.000000099400,   0.71200,
,,,-00.000000099300,   0.70400,
,,,-00.000000099200,   0.69600,
,,,-00.000000099100,   0.68800,
,,,-00.000000099000,   0.67200,
,,,-00.000000098900,   0.66400,
,,,-00.000000098800,   0.65600,
,,,-00.000000098700,   0.64800,
,,,-00.000000098600,   0.64800,
,,,-00.000000098500,   0.64000,
,,,-00.000000098400,   0.64000,
,,,-00.000000098300,   0.64000,
,,,-00.000000098200,   0.64000,
,,,-00.000000098100,   0.64000,
,,,-00.000000098000,   0.64000,
,,,-00.000000097900,   0.64000,
,,,-00.000000097800,   0.64000,
,,,-00.000000097700,   0.64800,
,,,-00.000000097600,   0.65600,
,,,-00.000000097500,   0.66400,
,,,-00.000000097400,   0.67200,
,,,-00.000000097300,   0.68800,
,,,-00.000000097200,   0.70400,
,,,-00.000000097100,   0.72000,
,,,-00.000000097000,   0.73600,
,,,-00.000000096900,   0.75200,
,,,-00.000000096800,   0.77600,
,,,-00.000000096700,   0.80000,
,,,-00.000000096600,   0.82400,
,,,-00.000000096500,   0.84800,
,,,-00.000000096400,   0.87200,
,,,-00.000000096300,   0.89600,
,,,-00.000000096200,   0.92000,
,,,-00.000000096100,   0.95200,
,,,-00.000000096000,   0.97600,
,,,-00.000000095900,   1.00000,
,,,-00.000000095800,   1.03200,
,,,-00.000000095700,   1.05600,
,,,-00.000000095600,   1.08800,
,,,-00.000000095500,   1.11200,
,,,-00.000000095400,   1.13600,
,,,-00.000000095300,   1.16000,
,,,-00.000000095200,   1.18400,
,,,-00.000000095100,   1.20800,
,,,-00.000000095000,   1.22400,
,,,-00.000000094900,   1.24800,
,,,-00.000000094800,   1.26400,
,,,-00.000000094700,   1.28000,
,,,-00.000000094600,   1.29600,
,,,-00.000000094500,   1.30400,
,,,-00.000000094400,   1.31200,
,,,-00.000000094300,   1.32000,
,,,-00.000000094200,   1.32000,
,,,-00.000000094100,   1.32800,
,,,-00.000000094000,   1.32800,
,,,-00.000000093900,   1.32800,
,,,-00.000000093800,   1.32000,
,,,-00.000000093700,   1.32000,
,,,-00.000000093600,   1.31200,
,,,-00.000000093500,   1.30400,
,,,-00.000000093400,   1.29600,
,,,-00.000000093300,   1.28000,
,,,-00.000000093200,   1.26400,
,,,-00.000000093100,   1.25600,
,,,-00.000000093000,   1.24000,
,,,-00.000000092900,   1.21600,
,,,-00.000000092800,   1.20000,
,,,-00.000000092700,   1.17600,
,,,-00.000000092600,   1.16000,
,,,-00.000000092500,   1.13600,
,,,-00.000000092400,   1.11200,
,,,-00.000000092300,   1.09600,
,,,-00.000000092200,   1.07200,
,,,-00.000000092100,   1.05600,
,,,-00.000000092000,   1.03200,
,,,-00.000000091900,   1.01600,
,,,-00.000000091800,   0.99200,
,,,-00.000000091700,   0.97600,
,,,-00.000000091600,   0.96000,
,,,-00.000000091500,   0.94400,
,,,-00.000000091400,   0.92800,
,,,-00.000000091300,   0.91200,
,,,-00.000000091200,   0.89600,
,,,-00.000000091100,   0.88800,
,,,-00.000000091000,   0.87200,
,,,-00.000000090900,   0.86400,
,,,-00.000000090800,   0.85600,
,,,-00.000000090700,   0.84800,
,,,-00.000000090600,   0.84800,
,,,-00.000000090500,   0.84000,
,,,-00.000000090400,   0.83200,
,,,-00.000000090300,   0.83200,
,,,-00.000000090200,   0.83200,
,,,-00.000000090100,   0.83200,
,,,-00.000000090000,   0.83200,
,,,-00.000000089900,   0.83200,
,,,-00.000000089800,   0.83200,
,,,-00.000000089700,   0.83200,
,,,-00.000000089600,   0.83200,
,,,-00.000000089500,   0.82400,
,,,-00.000000089400,   0.82400,
,,,-00.000000089300,   0.82400,
,,,-00.000000089200,   0.81600,
,,,-00.000000089100,   0.81600,
,,,-00.000000089000,   0.80800,
,,,-00.000000088900,   0.80800,
,,,-00.000000088800,   0.80000,
,,,-00.000000088700,   0.79200,
,,,-00.000000088600,   0.79200,
,,,-00.000000088500,   0.78400,
,,,-00.000000088400,   0.77600,
,,,-00.000000088300,   0.76800,
,,,-00.000000088200,   0.76000,
,,,-00.000000088100,   0.75200,
,,,-00.000000088000,   0.74400,
,,,-00.000000087900,   0.73600,
,,,-00.000000087800,   0.72800,
,,,-00.000000087700,   0.72000,
,,,-00.000000087600,   0.71200,
,,,-00.000000087500,   0.70400,
,,,-00.000000087400,   0.69600,
,,,-00.000000087300,   0.68800,
,,,-00.000000087200,   0.68000,
,,,-00.000000087100,   0.68000,
,,,-00.000000087000,   0.67200,
,,,-00.000000086900,   0.66400,
,,,-00.000000086800,   0.66400,
,,,-00.000000086700,   0.65600,
,,,-00.000000086600,   0.65600,
,,,-00.000000086500,   0.64800,
,,,-00.000000086400,   0.64800,
,,,-00.000000086300,   0.64800,
,,,-00.000000086200,   0.64800,
,,,-00.000000086100,   0.65600,
,,,-00.000000086000,   0.65600,
,,,-00.000000085900,   0.66400,
,,,-00.000000085800,   0.66400,
,,,-00.000000085700,   0.67200,
,,,-00.000000085600,   0.68800,
,,,-00.000000085500,   0.69600,
,,,-00.000000085400,   0.71200,
,,,-00.000000085300,   0.72800,
,,,-00.000000085200,   0.74400,
,,,-00.000000085100,   0.76800,
,,,-00.000000085000,   0.78400,
,,,-00.000000084900,   0.81600,
,,,-00.000000084800,   0.84000,
,,,-00.000000084700,   0.86400,
,,,-00.000000084600,   0.89600,
,,,-00.000000084500,   0.92000,
,,,-00.000000084400,   0.94400,
,,,-00.000000084300,   0.97600,
,,,-00.000000084200,   1.00000,
,,,-00.000000084100,   1.03200,
,,,-00.000000084000,   1.05600,
,,,-00.000000083900,   1.08000,
,,,-00.000000083800,   1.10400,
,,,-00.000000083700,   1.12800,
,,,-00.000000083600,   1.15200,
,,,-00.000000083500,   1.17600,
,,,-00.000000083400,   1.20000,
,,,-00.000000083300,   1.22400,
,,,-00.000000083200,   1.24000,
,,,-00.000000083100,   1.26400,
,,,-00.000000083000,   1.28000,
,,,-00.000000082900,   1.28800,
,,,-00.000000082800,   1.30400,
,,,-00.000000082700,   1.31200,
,,,-00.000000082600,   1.32000,
,,,-00.000000082500,   1.32000,
,,,-00.000000082400,   1.32000,
,,,-00.000000082300,   1.32000,
,,,-00.000000082200,   1.32000,
,,,-00.000000082100,   1.32000,
,,,-00.000000082000,   1.31200,
,,,-00.000000081900,   1.30400,
,,,-00.000000081800,   1.29600,
,,,-00.000000081700,   1.28800,
,,,-00.000000081600,   1.28000,
,,,-00.000000081500,   1.26400,
,,,-00.000000081400,   1.24800,
,,,-00.000000081300,   1.23200,
,,,-00.000000081200,   1.20800,
,,,-00.000000081100,   1.19200,
,,,-00.000000081000,   1.16800,
,,,-00.000000080900,   1.15200,
,,,-00.000000080800,   1.12800,
,,,-00.000000080700,   1.10400,
,,,-00.000000080600,   1.08800,
,,,-00.000000080500,   1.06400,
,,,-00.000000080400,   1.04800,
,,,-00.000000080300,   1.02400,
,,,-00.000000080200,   1.00800,
,,,-00.000000080100,   0.99200,
,,,-00.000000080000,   0.97600,
,,,-00.000000079900,   0.96000,
,,,-00.000000079800,   0.94400,
,,,-00.000000079700,   0.92800,
,,,-00.000000079600,   0.92000,
,,,-00.000000079500,   0.90400,
,,,-00.000000079400,   0.88800,
,,,-00.000000079300,   0.88000,
,,,-00.000000079200,   0.87200,
,,,-00.000000079100,   0.86400,
,,,-00.000000079000,   0.85600,
,,,-00.000000078900,   0.84800,
,,,-00.000000078800,   0.84000,
,,,-00.000000078700,   0.84000,
,,,-00.000000078600,   0.84000,
,,,-00.000000078500,   0.83200,
,,,-00.000000078400,   0.83200,
,,,-00.000000078300,   0.83200,
,,,-00.000000078200,   0.83200,
,,,-00.000000078100,   0.83200,
,,,-00.000000078000,   0.83200,
,,,-00.000000077900,   0.82400,
,,,-00.000000077800,   0.82400,
,,,-00.000000077700,   0.82400,
,,,-00.000000077600,   0.82400,
,,,-00.000000077500,   0.81600,
,,,-00.000000077400,   0.81600,
,,,-00.000000077300,   0.80800,
,,,-00.000000077200,   0.80000,
,,,-00.000000077100,   0.80000,
,,,-00.000000077000,   0.79200,
,,,-00.000000076900,   0.78400,
,,,-00.000000076800,   0.77600,
,,,-00.000000076700,   0.76800,
,,,-00.000000076600,   0.76800,
,,,-00.000000076500,   0.76000,
,,,-00.000000076400,   0.75200,
,,,-00.000000076300,   0.74400,
,,,-00.000000076200,   0.73600,
,,,-00.000000076100,   0.73600,
,,,-00.000000076000,   0.72800,
,,,-00.000000075900,   0.72000,
,,,-00.000000075800,   0.71200,
,,,-00.000000075700,   0.70400,
,,,-00.000000075600,   0.69600,
,,,-00.000000075500,   0.68800,
,,,-00.000000075400,   0.68000,
,,,-00.000000075300,   0.67200,
,,,-00.000000075200,   0.66400,
,,,-00.000000075100,   0.66400,
,,,-00.000000075000,   0.65600,
,,,-00.000000074900,   0.65600,
,,,-00.000000074800,   0.65600,
,,,-00.000000074700,   0.65600,
,,,-00.000000074600,   0.65600,
,,,-00.000000074500,   0.65600,
,,,-00.000000074400,   0.65600,
,,,-00.000000074300,   0.65600,
,,,-00.000000074200,   0.66400,
,,,-00.000000074100,   0.67200,
,,,-00.000000074000,   0.68000,
,,,-00.000000073900,   0.68800,
,,,-00.000000073800,   0.70400,
,,,-00.000000073700,   0.72000,
,,,-00.000000073600,   0.74400,
,,,-00.000000073500,   0.76000,
,,,-00.000000073400,   0.78400,
,,,-00.000000073300,   0.80800,
,,,-00.000000073200,   0.83200,
,,,-00.000000073100,   0.85600,
,,,-00.000000073000,   0.88000,
,,,-00.000000072900,   0.90400,
,,,-00.000000072800,   0.92800,
,,,-00.000000072700,   0.95200,
,,,-00.000000072600,   0.98400,
,,,-00.000000072500,   1.00800,
,,,-00.000000072400,   1.03200,
,,,-00.000000072300,   1.05600,
,,,-00.000000072200,   1.08000,
,,,-00.000000072100,   1.11200,
,,,-00.000000072000,   1.13600,
,,,-00.000000071900,   1.16000,
,,,-00.000000071800,   1.18400,
,,,-00.000000071700,   1.20800,
,,,-00.000000071600,   1.23200,
,,,-00.000000071500,   1.24800,
,,,-00.000000071400,   1.26400,
,,,-00.000000071300,   1.28000,
,,,-00.000000071200,   1.28800,
,,,-00.000000071100,   1.30400,
,,,-00.000000071000,   1.31200,
,,,-00.000000070900,   1.32000,
,,,-00.000000070800,   1.32000,
,,,-00.000000070700,   1.32800,
,,,-00.000000070600,   1.32800,
,,,-00.000000070500,   1.32800,
,,,-00.000000070400,   1.32000,
,,,-00.000000070300,   1.32000,
,,,-00.000000070200,   1.31200,
,,,-00.000000070100,   1.30400,
,,,-00.000000070000,   1.29600,
,,,-00.000000069900,   1.28000,
,,,-00.000000069800,   1.27200,
,,,-00.000000069700,   1.25600,
,,,-00.000000069600,   1.24000,
,,,-00.000000069500,   1.21600,
,,,-00.000000069400,   1.19200,
,,,-00.000000069300,   1.16800,
,,,-00.000000069200,   1.15200,
,,,-00.000000069100,   1.12800,
,,,-00.000000069000,   1.10400,
,,,-00.000000068900,   1.08800,
,,,-00.000000068800,   1.06400,
,,,-00.000000068700,   1.04800,
,,,-00.000000068600,   1.03200,
,,,-00.000000068500,   1.00800,
,,,-00.000000068400,   0.99200,
,,,-00.000000068300,   0.97600,
,,,-00.000000068200,   0.96000,
,,,-00.000000068100,   0.94400,
,,,-00.000000068000,   0.92800,
,,,-00.000000067900,   0.91200,
,,,-00.000000067800,   0.89600,
,,,-00.000000067700,   0.88800,
,,,-00.000000067600,   0.88000,
,,,-00.000000067500,   0.87200,
,,,-00.000000067400,   0.86400,
,,,-00.000000067300,   0.85600,
,,,-00.000000067200,   0.84800,
,,,-00.000000067100,   0.84800,
,,,-00.000000067000,   0.84000,
,,,-00.000000066900,   0.84000,
,,,-00.000000066800,   0.83200,
,,,-00.000000066700,   0.83200,
,,,-00.000000066600,   0.83200,
,,,-00.000000066500,   0.82400,
,,,-00.000000066400,   0.82400,
,,,-00.000000066300,   0.81600,
,,,-00.000000066200,   0.81600,
,,,-00.000000066100,   0.81600,
,,,-00.000000066000,   0.80800,
,,,-00.000000065900,   0.80800,
,,,-00.000000065800,   0.80800,
,,,-00.000000065700,   0.80000,
,,,-00.000000065600,   0.80000,
,,,-00.000000065500,   0.79200,
,,,-00.000000065400,   0.79200,
,,,-00.000000065300,   0.78400,
,,,-00.000000065200,   0.77600,
,,,-00.000000065100,   0.77600,
,,,-00.000000065000,   0.76800,
,,,-00.000000064900,   0.76000,
,,,-00.000000064800,   0.75200,
,,,-00.000000064700,   0.74400,
,,,-00.000000064600,   0.73600,
,,,-00.000000064500,   0.72800,
,,,-00.000000064400,   0.72000,
,,,-00.000000064300,   0.72000,
,,,-00.000000064200,   0.71200,
,,,-00.000000064100,   0.71200,
,,,-00.000000064000,   0.70400,
,,,-00.000000063900,   0.69600,
,,,-00.000000063800,   0.68800,
,,,-00.000000063700,   0.68000,
,,,-00.000000063600,   0.67200,
