green/tek0046.csv

Model,MSO3054
Firmware Version,2.31

Waveform Type,Analog
Point Format,Y
Horizontal Units,s
Horizontal Scale,8e-07
Horizontal Delay,0
Sample Interval,8e-10
Record Length,10000
Gating,0.0% to 100.0%
Probe Attenuation,1
Vertical Units,V
Vertical Offset,0
Vertical Scale,0.05
Vertical Position,0
Label,
TIME,CH1
-4.0000e-06,-0.132
-3.9992e-06,0.068
-3.9984e-06,0.024
-3.9976e-06,-0.11
-3.9968e-06,0.142
-3.9960e-06,-0.114
-3.9952e-06,0.038
-3.9944e-06,0.064
-3.9936e-06,-0.126
-3.9928e-06,0.14
-3.9920e-06,-0.088
-3.9912e-06,0.002
-3.9904e-06,0.092
-3.9896e-06,-0.142
-3.9888e-06,0.13
-3.9880e-06,-0.06
-3.9872e-06,-0.03
-3.9864e-06,0.116
-3.9856e-06,-0.148
-3.9848e-06,0.112
-3.9840e-06,-0.026
-3.9832e-06,-0.06
-3.9824e-06,0.13
-3.9816e-06,-0.14
-3.9808e-06,0.086
-3.9800e-06,0.008
-3.9792e-06,-0.092
-3.9784e-06,0.138
-3.9776e-06,-0.126
-3.9768e-06,0.06
-3.9760e-06,0.04
-3.9752e-06,-0.114
-3.9744e-06,0.144
-3.9736e-06,-0.106
-3.9728e-06,0.026
-3.9720e-06,0.072
-3.9712e-06,-0.134
-3.9704e-06,0.138
-3.9696e-06,-0.08
-3.9688e-06,-0.01
-3.9680e-06,0.104
-3.9672e-06,-0.142
-3.9664e-06,0.122
-3.9656e-06,-0.048
-3.9648e-06,-0.046
-3.9640e-06,0.124
-3.9632e-06,-0.144
-3.9624e-06,0.102
-3.9616e-06,-0.014
-3.9608e-06,-0.07
-3.9600e-06,0.136
-3.9592e-06,-0.132
-3.9584e-06,0.078
-3.9576e-06,0.02
-3.9568e-06,-0.106
-3.9560e-06,0.146
-3.9552e-06,-0.118
-3.9544e-06,0.046
-3.9536e-06,0.056
-3.9528e-06,-0.126
-3.9520e-06,0.14
-3.9512e-06,-0.1
-3.9504e-06,0.012
-3.9496e-06,0.084
-3.9488e-06,-0.142
-3.9480e-06,0.134
-3.9472e-06,-0.068
-3.9464e-06,-0.022
-3.9456e-06,0.108
-3.9448e-06,-0.144
-3.9440e-06,0.124
-3.9432e-06,-0.036
-3.9424e-06,-0.054
-3.9416e-06,0.13
-3.9408e-06,-0.142
-3.9400e-06,0.1
-3.9392e-06,-0.004
-3.9384e-06,-0.086
-3.9376e-06,0.142
-3.9368e-06,-0.13
-3.9360e-06,0.066
-3.9352e-06,0.032
-3.9344e-06,-0.11
-3.9336e-06,0.14
-3.9328e-06,-0.112
-3.9320e-06,0.038
-3.9312e-06,0.062
-3.9304e-06,-0.132
-3.9296e-06,0.14
-3.9288e-06,-0.086
-3.9280e-06,0.004
-3.9272e-06,0.09
-3.9264e-06,-0.14
-3.9256e-06,0.13
-3.9248e-06,-0.056
-3.9240e-06,-0.03
-3.9232e-06,0.12
-3.9224e-06,-0.144
-3.9216e-06,0.112
-3.9208e-06,-0.022
-3.9200e-06,-0.068
-3.9192e-06,0.132
-3.9184e-06,-0.14
-3.9176e-06,0.082
-3.9168e-06,0.012
-3.9160e-06,-0.094
-3.9152e-06,0.146
-3.9144e-06,-0.124
-3.9136e-06,0.056
-3.9128e-06,0.046
-3.9120e-06,-0.118
-3.9112e-06,0.146
-3.9104e-06,-0.104
-3.9096e-06,0.022
-3.9088e-06,0.078
-3.9080e-06,-0.14
-3.9072e-06,0.136
-3.9064e-06,-0.076
-3.9056e-06,-0.008
-3.9048e-06,0.102
-3.9040e-06,-0.142
-3.9032e-06,0.122
-3.9024e-06,-0.046
-3.9016e-06,-0.042
-3.9008e-06,0.124
-3.9000e-06,-0.142
-3.8992e-06,0.104
-3.8984e-06,-0.012
-3.8976e-06,-0.078
-3.8968e-06,0.14
-3.8960e-06,-0.134
-3.8952e-06,0.076
-3.8944e-06,0.018
-3.8936e-06,-0.102
-3.8928e-06,0.146
-3.8920e-06,-0.114
-3.8912e-06,0.044
-3.8904e-06,0.058
-3.8896e-06,-0.126
-3.8888e-06,0.142
-3.8880e-06,-0.094
-3.8872e-06,0.008
-3.8864e-06,0.086
-3.8856e-06,-0.142
-3.8848e-06,0.13
-3.8840e-06,-0.062
-3.8832e-06,-0.03
-3.8824e-06,0.108
-3.8816e-06,-0.148
-3.8808e-06,0.118
-3.8800e-06,-0.032
-3.8792e-06,-0.054
-3.8784e-06,0.128
-3.8776e-06,-0.142
-3.8768e-06,0.092
-3.8760e-06,0.002
-3.8752e-06,-0.088
-3.8744e-06,0.142
-3.8736e-06,-0.128
-3.8728e-06,0.064
-3.8720e-06,0.034
-3.8712e-06,-0.112
-3.8704e-06,0.142
-3.8696e-06,-0.11
-3.8688e-06,0.03
-3.8680e-06,0.066
-3.8672e-06,-0.132
-3.8664e-06,0.142
-3.8656e-06,-0.086
-3.8648e-06,-0.002
-3.8640e-06,0.1
-3.8632e-06,-0.136
-3.8624e-06,0.128
-3.8616e-06,-0.052
-3.8608e-06,-0.04
-3.8600e-06,0.116
-3.8592e-06,-0.142
-3.8584e-06,0.112
-3.8576e-06,-0.016
-3.8568e-06,-0.066
-3.8560e-06,0.134
-3.8552e-06,-0.14
-3.8544e-06,0.084
-3.8536e-06,0.016
-3.8528e-06,-0.096
-3.8520e-06,0.14
-3.8512e-06,-0.118
-3.8504e-06,0.052
-3.8496e-06,0.052
-3.8488e-06,-0.122
-3.8480e-06,0.144
-3.8472e-06,-0.1
-3.8464e-06,0.018
-3.8456e-06,0.082
-3.8448e-06,-0.134
-3.8440e-06,0.134
-3.8432e-06,-0.076
-3.8424e-06,-0.018
-3.8416e-06,0.104
-3.8408e-06,-0.146
-3.8400e-06,0.124
-3.8392e-06,-0.042
-3.8384e-06,-0.046
-3.8376e-06,0.128
-3.8368e-06,-0.136
-3.8360e-06,0.104
-3.8352e-06,-0.012
-3.8344e-06,-0.08
-3.8336e-06,0.136
-3.8328e-06,-0.132
-3.8320e-06,0.074
-3.8312e-06,0.024
-3.8304e-06,-0.104
-3.8296e-06,0.142
-3.8288e-06,-0.116
-3.8280e-06,0.042
-3.8272e-06,0.062
-3.8264e-06,-0.128
-3.8256e-06,0.14
-3.8248e-06,-0.088
-3.8240e-06,0.01
-3.8232e-06,0.088
-3.8224e-06,-0.138
-3.8216e-06,0.13
-3.8208e-06,-0.058
-3.8200e-06,-0.026
-3.8192e-06,0.11
-3.8184e-06,-0.146
-3.8176e-06,0.114
-3.8168e-06,-0.026
-3.8160e-06,-0.062
-3.8152e-06,0.13
-3.8144e-06,-0.14
-3.8136e-06,0.09
-3.8128e-06,0.004
-3.8120e-06,-0.092
-3.8112e-06,0.142
-3.8104e-06,-0.132
-3.8096e-06,0.06
-3.8088e-06,0.042
-3.8080e-06,-0.116
-3.8072e-06,0.142
-3.8064e-06,-0.108
-3.8056e-06,0.028
-3.8048e-06,0.07
-3.8040e-06,-0.136
-3.8032e-06,0.138
-3.8024e-06,-0.086
-3.8016e-06,-0.006
-3.8008e-06,0.096
-3.8000e-06,-0.144
-3.7992e-06,0.128
-3.7984e-06,-0.046
-3.7976e-06,-0.044
-3.7968e-06,0.114
-3.7960e-06,-0.142
-3.7952e-06,0.108
-3.7944e-06,-0.014
-3.7936e-06,-0.074
-3.7928e-06,0.136
-3.7920e-06,-0.138
-3.7912e-06,0.08
-3.7904e-06,0.016
-3.7896e-06,-0.106
-3.7888e-06,0.146
-3.7880e-06,-0.12
-3.7872e-06,0.05
-3.7864e-06,0.05
-3.7856e-06,-0.122
-3.7848e-06,0.144
-3.7840e-06,-0.098
-3.7832e-06,0.016
-3.7824e-06,0.08
-3.7816e-06,-0.136
-3.7808e-06,0.136
-3.7800e-06,-0.072
-3.7792e-06,-0.018
-3.7784e-06,0.104
-3.7776e-06,-0.148
-3.7768e-06,0.12
-3.7760e-06,-0.036
-3.7752e-06,-0.05
-3.7744e-06,0.122
-3.7736e-06,-0.14
-3.7728e-06,0.098
-3.7720e-06,-0.006
-3.7712e-06,-0.082
-3.7704e-06,0.14
-3.7696e-06,-0.13
-3.7688e-06,0.074
-3.7680e-06,0.022
-3.7672e-06,-0.112
-3.7664e-06,0.144
-3.7656e-06,-0.116
-3.7648e-06,0.042
-3.7640e-06,0.06
-3.7632e-06,-0.128
-3.7624e-06,0.136
-3.7616e-06,-0.088
-3.7608e-06,0.008
-3.7600e-06,0.092
-3.7592e-06,-0.144
-3.7584e-06,0.13
-3.7576e-06,-0.058
-3.7568e-06,-0.03
-3.7560e-06,0.116
-3.7552e-06,-0.148
-3.7544e-06,0.112
-3.7536e-06,-0.028
-3.7528e-06,-0.06
-3.7520e-06,0.134
-3.7512e-06,-0.138
-3.7504e-06,0.088
-3.7496e-06,0.006
-3.7488e-06,-0.098
-3.7480e-06,0.144
-3.7472e-06,-0.124
-3.7464e-06,0.06
-3.7456e-06,0.04
-3.7448e-06,-0.116
-3.7440e-06,0.146
-3.7432e-06,-0.102
-3.7424e-06,0.024
-3.7416e-06,0.07
-3.7408e-06,-0.134
-3.7400e-06,0.138
-3.7392e-06,-0.08
-3.7384e-06,-0.01
-3.7376e-06,0.102
-3.7368e-06,-0.144
-3.7360e-06,0.126
-3.7352e-06,-0.048
-3.7344e-06,-0.044
-3.7336e-06,0.118
-3.7328e-06,-0.144
-3.7320e-06,0.104
-3.7312e-06,-0.018
-3.7304e-06,-0.078
-3.7296e-06,0.138
-3.7288e-06,-0.132
-3.7280e-06,0.074
-3.7272e-06,0.018
-3.7264e-06,-0.102
-3.7256e-06,0.146
-3.7248e-06,-0.118
-3.7240e-06,0.044
-3.7232e-06,0.05
-3.7224e-06,-0.124
-3.7216e-06,0.144
-3.7208e-06,-0.098
-3.7200e-06,0.016
-3.7192e-06,0.08
-3.7184e-06,-0.138
-3.7176e-06,0.136
-3.7168e-06,-0.066
-3.7160e-06,-0.02
-3.7152e-06,0.11
-3.7144e-06,-0.146
-3.7136e-06,0.118
-3.7128e-06,-0.036
-3.7120e-06,-0.056
-3.7112e-06,0.13
-3.7104e-06,-0.138
-3.7096e-06,0.094
-3.7088e-06,-0.004
-3.7080e-06,-0.088
-3.7072e-06,0.14
-3.7064e-06,-0.126
-3.7056e-06,0.068
-3.7048e-06,0.032
-3.7040e-06,-0.11
-3.7032e-06,0.144
-3.7024e-06,-0.114
-3.7016e-06,0.03
-3.7008e-06,0.062
-3.7000e-06,-0.13
-3.6992e-06,0.146
-3.6984e-06,-0.086
-3.6976e-06,-0.002
-3.6968e-06,0.092
-3.6960e-06,-0.14
-3.6952e-06,0.132
-3.6944e-06,-0.056
-3.6936e-06,-0.03
-3.6928e-06,0.114
-3.6920e-06,-0.146
-3.6912e-06,0.108
-3.6904e-06,-0.024
-3.6896e-06,-0.066
-3.6888e-06,0.134
-3.6880e-06,-0.138
-3.6872e-06,0.086
-3.6864e-06,0.01
-3.6856e-06,-0.098
-3.6848e-06,0.144
-3.6840e-06,-0.126
-3.6832e-06,0.056
-3.6824e-06,0.04
-3.6816e-06,-0.122
-3.6808e-06,0.142
-3.6800e-06,-0.108
-3.6792e-06,0.022
-3.6784e-06,0.078
-3.6776e-06,-0.136
-3.6768e-06,0.136
-3.6760e-06,-0.08
-3.6752e-06,-0.01
-3.6744e-06,0.1
-3.6736e-06,-0.144
-3.6728e-06,0.124
-3.6720e-06,-0.05
-3.6712e-06,-0.046
-3.6704e-06,0.122
-3.6696e-06,-0.14
-3.6688e-06,0.104
-3.6680e-06,-0.01
-3.6672e-06,-0.078
-3.6664e-06,0.14
-3.6656e-06,-0.138
-3.6648e-06,0.076
-3.6640e-06,0.026
-3.6632e-06,-0.1
-3.6624e-06,0.14
-3.6616e-06,-0.118
-3.6608e-06,0.05
-3.6600e-06,0.054
-3.6592e-06,-0.128
-3.6584e-06,0.14
-3.6576e-06,-0.094
-3.6568e-06,0.006
-3.6560e-06,0.082
-3.6552e-06,-0.136
-3.6544e-06,0.136
-3.6536e-06,-0.068
-3.6528e-06,-0.024
-3.6520e-06,0.11
-3.6512e-06,-0.144
-3.6504e-06,0.122
-3.6496e-06,-0.036
-3.6488e-06,-0.058
-3.6480e-06,0.132
-3.6472e-06,-0.138
-3.6464e-06,0.09
-3.6456e-06,0.004
-3.6448e-06,-0.088
-3.6440e-06,0.14
-3.6432e-06,-0.132
-3.6424e-06,0.06
-3.6416e-06,0.034
-3.6408e-06,-0.114
-3.6400e-06,0.142
-3.6392e-06,-0.11
-3.6384e-06,0.032
-3.6376e-06,0.068
-3.6368e-06,-0.134
-3.6360e-06,0.14
-3.6352e-06,-0.084
-3.6344e-06,0
-3.6336e-06,0.1
-3.6328e-06,-0.14
-3.6320e-06,0.126
-3.6312e-06,-0.058
-3.6304e-06,-0.036
-3.6296e-06,0.116
-3.6288e-06,-0.148
-3.6280e-06,0.108
-3.6272e-06,-0.024
-3.6264e-06,-0.068
-3.6256e-06,0.14
-3.6248e-06,-0.142
-3.6240e-06,0.082
-3.6232e-06,0.01
-3.6224e-06,-0.098
-3.6216e-06,0.142
-3.6208e-06,-0.126
-3.6200e-06,0.054
-3.6192e-06,0.046
-3.6184e-06,-0.122
-3.6176e-06,0.142
-3.6168e-06,-0.098
-3.6160e-06,0.02
-3.6152e-06,0.08
-3.6144e-06,-0.136
-3.6136e-06,0.138
-3.6128e-06,-0.072
-3.6120e-06,-0.014
-3.6112e-06,0.104
-3.6104e-06,-0.14
-3.6096e-06,0.124
-3.6088e-06,-0.038
-3.6080e-06,-0.046
-3.6072e-06,0.126
-3.6064e-06,-0.142
-3.6056e-06,0.102
-3.6048e-06,-0.008
-3.6040e-06,-0.082
-3.6032e-06,0.136
-3.6024e-06,-0.132
-3.6016e-06,0.074
-3.6008e-06,0.024
-3.6000e-06,-0.104
-3.5992e-06,0.142
-3.5984e-06,-0.12
-3.5976e-06,0.04
-3.5968e-06,0.056
-3.5960e-06,-0.126
-3.5952e-06,0.144
-3.5944e-06,-0.094
-3.5936e-06,0.01
-3.5928e-06,0.09
-3.5920e-06,-0.136
-3.5912e-06,0.126
-3.5904e-06,-0.064
-3.5896e-06,-0.032
-3.5888e-06,0.108
-3.5880e-06,-0.142
-3.5872e-06,0.116
-3.5864e-06,-0.03
-3.5856e-06,-0.064
-3.5848e-06,0.132
-3.5840e-06,-0.14
-3.5832e-06,0.094
-3.5824e-06,0
-3.5816e-06,-0.094
-3.5808e-06,0.142
-3.5800e-06,-0.128
-3.5792e-06,0.058
-3.5784e-06,0.036
-3.5776e-06,-0.112
-3.5768e-06,0.144
-3.5760e-06,-0.104
-3.5752e-06,0.028
-3.5744e-06,0.066
-3.5736e-06,-0.134
-3.5728e-06,0.138
-3.5720e-06,-0.082
-3.5712e-06,-0.006
-3.5704e-06,0.1
-3.5696e-06,-0.14
-3.5688e-06,0.126
-3.5680e-06,-0.052
-3.5672e-06,-0.04
-3.5664e-06,0.12
-3.5656e-06,-0.144
-3.5648e-06,0.104
-3.5640e-06,-0.014
-3.5632e-06,-0.076
-3.5624e-06,0.134
-3.5616e-06,-0.136
-3.5608e-06,0.08
-3.5600e-06,0.018
-3.5592e-06,-0.098
-3.5584e-06,0.148
-3.5576e-06,-0.12
-3.5568e-06,0.05
-3.5560e-06,0.048
-3.5552e-06,-0.12
-3.5544e-06,0.144
-3.5536e-06,-0.102
-3.5528e-06,0.016
-3.5520e-06,0.082
-3.5512e-06,-0.13
-3.5504e-06,0.134
-3.5496e-06,-0.07
-3.5488e-06,-0.016
-3.5480e-06,0.102
-3.5472e-06,-0.144
-3.5464e-06,0.12
-3.5456e-06,-0.04
-3.5448e-06,-0.048
-3.5440e-06,0.13
-3.5432e-06,-0.142
-3.5424e-06,0.1
-3.5416e-06,-0.006
-3.5408e-06,-0.078
-3.5400e-06,0.14
-3.5392e-06,-0.132
-3.5384e-06,0.072
-3.5376e-06,0.026
-3.5368e-06,-0.11
-3.5360e-06,0.152
-3.5352e-06,-0.116
-3.5344e-06,0.038
-3.5336e-06,0.06
-3.5328e-06,-0.126
-3.5320e-06,0.138
-3.5312e-06,-0.09
-3.5304e-06,0.006
-3.5296e-06,0.098
-3.5288e-06,-0.142
-3.5280e-06,0.13
-3.5272e-06,-0.062
-3.5264e-06,-0.032
-3.5256e-06,0.114
-3.5248e-06,-0.146
-3.5240e-06,0.114
-3.5232e-06,-0.03
-3.5224e-06,-0.064
-3.5216e-06,0.132
-3.5208e-06,-0.136
-3.5200e-06,0.086
-3.5192e-06,0.006
-3.5184e-06,-0.096
-3.5176e-06,0.144
-3.5168e-06,-0.13
-3.5160e-06,0.062
-3.5152e-06,0.04
-3.5144e-06,-0.12
-3.5136e-06,0.146
-3.5128e-06,-0.106
-3.5120e-06,0.03
-3.5112e-06,0.072
-3.5104e-06,-0.13
-3.5096e-06,0.14
-3.5088e-06,-0.078
-3.5080e-06,-0.006
-3.5072e-06,0.1
-3.5064e-06,-0.142
-3.5056e-06,0.124
-3.5048e-06,-0.046
-3.5040e-06,-0.036
-3.5032e-06,0.122
-3.5024e-06,-0.142
-3.5016e-06,0.104
-3.5008e-06,-0.014
-3.5000e-06,-0.08
-3.4992e-06,0.136
-3.4984e-06,-0.136
-3.4976e-06,0.084
-3.4968e-06,0.02
-3.4960e-06,-0.102
-3.4952e-06,0.144
-3.4944e-06,-0.122
-3.4936e-06,0.048
-3.4928e-06,0.052
-3.4920e-06,-0.122
-3.4912e-06,0.142
-3.4904e-06,-0.098
-3.4896e-06,0.012
-3.4888e-06,0.086
-3.4880e-06,-0.138
-3.4872e-06,0.142
-3.4864e-06,-0.072
-3.4856e-06,-0.022
-3.4848e-06,0.11
-3.4840e-06,-0.14
-3.4832e-06,0.118
-3.4824e-06,-0.032
-3.4816e-06,-0.056
-3.4808e-06,0.128
-3.4800e-06,-0.142
-3.4792e-06,0.096
-3.4784e-06,-0.002
-3.4776e-06,-0.088
-3.4768e-06,0.14
-3.4760e-06,-0.126
-3.4752e-06,0.066
-3.4744e-06,0.032
-3.4736e-06,-0.112
-3.4728e-06,0.146
-3.4720e-06,-0.116
-3.4712e-06,0.034
-3.4704e-06,0.064
-3.4696e-06,-0.13
-3.4688e-06,0.14
-3.4680e-06,-0.088
-3.4672e-06,0.006
-3.4664e-06,0.092
-3.4656e-06,-0.142
-3.4648e-06,0.13
-3.4640e-06,-0.058
-3.4632e-06,-0.032
-3.4624e-06,0.12
-3.4616e-06,-0.14
-3.4608e-06,0.114
-3.4600e-06,-0.022
-3.4592e-06,-0.064
-3.4584e-06,0.13
-3.4576e-06,-0.14
-3.4568e-06,0.08
-3.4560e-06,0.012
-3.4552e-06,-0.094
-3.4544e-06,0.14
-3.4536e-06,-0.12
-3.4528e-06,0.052
-3.4520e-06,0.042
-3.4512e-06,-0.12
-3.4504e-06,0.144
-3.4496e-06,-0.104
-3.4488e-06,0.026
-3.4480e-06,0.074
-3.4472e-06,-0.132
-3.4464e-06,0.136
-3.4456e-06,-0.076
-3.4448e-06,-0.014
-3.4440e-06,0.102
-3.4432e-06,-0.142
-3.4424e-06,0.13
-3.4416e-06,-0.046
-3.4408e-06,-0.046
-3.4400e-06,0.122
-3.4392e-06,-0.146
-3.4384e-06,0.102
-3.4376e-06,-0.01
-3.4368e-06,-0.076
-3.4360e-06,0.14
-3.4352e-06,-0.136
-3.4344e-06,0.076
-3.4336e-06,0.022
-3.4328e-06,-0.106
-3.4320e-06,0.146
-3.4312e-06,-0.12
-3.4304e-06,0.04
-3.4296e-06,0.054
-3.4288e-06,-0.12
-3.4280e-06,0.144
-3.4272e-06,-0.088
-3.4264e-06,0.012
-3.4256e-06,0.088
-3.4248e-06,-0.14
-3.4240e-06,0.134
-3.4232e-06,-0.066
-3.4224e-06,-0.024
-3.4216e-06,0.112
-3.4208e-06,-0.142
-3.4200e-06,0.12
-3.4192e-06,-0.032
-3.4184e-06,-0.058
-3.4176e-06,0.132
-3.4168e-06,-0.14
-3.4160e-06,0.094
-3.4152e-06,0.002
-3.4144e-06,-0.09
-3.4136e-06,0.142
-3.4128e-06,-0.132
-3.4120e-06,0.068
-3.4112e-06,0.036
-3.4104e-06,-0.11
-3.4096e-06,0.148
-3.4088e-06,-0.112
-3.4080e-06,0.028
-3.4072e-06,0.066
-3.4064e-06,-0.128
-3.4056e-06,0.14
-3.4048e-06,-0.08
-3.4040e-06,-0.006
-3.4032e-06,0.096
-3.4024e-06,-0.142
-3.4016e-06,0.13
-3.4008e-06,-0.054
-3.4000e-06,-0.038
-3.3992e-06,0.118
-3.3984e-06,-0.148
-3.3976e-06,0.108
-3.3968e-06,-0.014
-3.3960e-06,-0.068
-3.3952e-06,0.136
-3.3944e-06,-0.134
-3.3936e-06,0.08
-3.3928e-06,0.012
-3.3920e-06,-0.096
-3.3912e-06,0.144
-3.3904e-06,-0.122
-3.3896e-06,0.052
-3.3888e-06,0.048
-3.3880e-06,-0.118
-3.3872e-06,0.146
-3.3864e-06,-0.1
-3.3856e-06,0.022
-3.3848e-06,0.076
-3.3840e-06,-0.136
-3.3832e-06,0.136
-3.3824e-06,-0.074
-3.3816e-06,-0.016
-3.3808e-06,0.102
-3.3800e-06,-0.142
-3.3792e-06,0.122
-3.3784e-06,-0.04
-3.3776e-06,-0.05
-3.3768e-06,0.126
-3.3760e-06,-0.144
-3.3752e-06,0.104
-3.3744e-06,-0.006
-3.3736e-06,-0.08
-3.3728e-06,0.138
-3.3720e-06,-0.132
-3.3712e-06,0.072
-3.3704e-06,0.028
-3.3696e-06,-0.108
-3.3688e-06,0.144
-3.3680e-06,-0.116
-3.3672e-06,0.042
-3.3664e-06,0.056
-3.3656e-06,-0.124
-3.3648e-06,0.14
-3.3640e-06,-0.096
-3.3632e-06,0.008
-3.3624e-06,0.088
-3.3616e-06,-0.144
-3.3608e-06,0.138
-3.3600e-06,-0.062
-3.3592e-06,-0.028
-3.3584e-06,0.112
-3.3576e-06,-0.144
-3.3568e-06,0.112
-3.3560e-06,-0.032
-3.3552e-06,-0.066
-3.3544e-06,0.128
-3.3536e-06,-0.138
-3.3528e-06,0.088
-3.3520e-06,0.004
-3.3512e-06,-0.09
-3.3504e-06,0.144
-3.3496e-06,-0.132
-3.3488e-06,0.064
-3.3480e-06,0.038
-3.3472e-06,-0.11
-3.3464e-06,0.144
-3.3456e-06,-0.108
-3.3448e-06,0.024
-3.3440e-06,0.066
-3.3432e-06,-0.132
-3.3424e-06,0.14
-3.3416e-06,-0.078
-3.3408e-06,0
-3.3400e-06,0.098
-3.3392e-06,-0.144
-3.3384e-06,0.126
-3.3376e-06,-0.052
-3.3368e-06,-0.04
-3.3360e-06,0.12
-3.3352e-06,-0.146
-3.3344e-06,0.106
-3.3336e-06,-0.02
-3.3328e-06,-0.074
-3.3320e-06,0.136
-3.3312e-06,-0.138
-3.3304e-06,0.082
-3.3296e-06,0.016
-3.3288e-06,-0.102
-3.3280e-06,0.14
-3.3272e-06,-0.12
-3.3264e-06,0.052
-3.3256e-06,0.05
-3.3248e-06,-0.126
-3.3240e-06,0.14
-3.3232e-06,-0.1
-3.3224e-06,0.016
-3.3216e-06,0.082
-3.3208e-06,-0.134
-3.3200e-06,0.136
-3.3192e-06,-0.074
-3.3184e-06,-0.022
-3.3176e-06,0.104
-3.3168e-06,-0.146
-3.3160e-06,0.124
-3.3152e-06,-0.038
-3.3144e-06,-0.052
-3.3136e-06,0.126
-3.3128e-06,-0.142
-3.3120e-06,0.102
-3.3112e-06,-0.008
-3.3104e-06,-0.084
-3.3096e-06,0.138
-3.3088e-06,-0.134
-3.3080e-06,0.07
-3.3072e-06,0.028
-3.3064e-06,-0.11
-3.3056e-06,0.144
-3.3048e-06,-0.116
-3.3040e-06,0.04
-3.3032e-06,0.06
-3.3024e-06,-0.13
-3.3016e-06,0.142
-3.3008e-06,-0.088
-3.3000e-06,0.004
-3.2992e-06,0.092
-3.2984e-06,-0.134
-3.2976e-06,0.134
-3.2968e-06,-0.062
-3.2960e-06,-0.03
-3.2952e-06,0.112
-3.2944e-06,-0.146
-3.2936e-06,0.118
-3.2928e-06,-0.03
-3.2920e-06,-0.062
-3.2912e-06,0.134
-3.2904e-06,-0.142
-3.2896e-06,0.088
-3.2888e-06,0.012
-3.2880e-06,-0.096
-3.2872e-06,0.14
-3.2864e-06,-0.124
-3.2856e-06,0.06
-3.2848e-06,0.044
-3.2840e-06,-0.116
-3.2832e-06,0.142
-3.2824e-06,-0.106
-3.2816e-06,0.026
-3.2808e-06,0.072
-3.2800e-06,-0.126
-3.2792e-06,0.138
-3.2784e-06,-0.076
-3.2776e-06,-0.014
-3.2768e-06,0.098
-3.2760e-06,-0.142
-3.2752e-06,0.124
-3.2744e-06,-0.046
-3.2736e-06,-0.046
-3.2728e-06,0.122
-3.2720e-06,-0.144
-3.2712e-06,0.104
-3.2704e-06,-0.012
-3.2696e-06,-0.07
-3.2688e-06,0.136
-3.2680e-06,-0.136
-3.2672e-06,0.08
-3.2664e-06,0.018
-3.2656e-06,-0.102
-3.2648e-06,0.14
-3.2640e-06,-0.116
-3.2632e-06,0.048
-3.2624e-06,0.05
-3.2616e-06,-0.124
-3.2608e-06,0.144
-3.2600e-06,-0.096
-3.2592e-06,0.012
-3.2584e-06,0.088
-3.2576e-06,-0.138
-3.2568e-06,0.138
-3.2560e-06,-0.072
-3.2552e-06,-0.024
-3.2544e-06,0.108
-3.2536e-06,-0.144
-3.2528e-06,0.122
-3.2520e-06,-0.036
-3.2512e-06,-0.056
-3.2504e-06,0.126
-3.2496e-06,-0.144
-3.2488e-06,0.098
-3.2480e-06,0
-3.2472e-06,-0.086
-3.2464e-06,0.14
-3.2456e-06,-0.132
-3.2448e-06,0.068
-3.2440e-06,0.032
-3.2432e-06,-0.11
-3.2424e-06,0.146
-3.2416e-06,-0.11
-3.2408e-06,0.034
-3.2400e-06,0.062
-3.2392e-06,-0.128
-3.2384e-06,0.14
-3.2376e-06,-0.094
-3.2368e-06,0
-3.2360e-06,0.096
-3.2352e-06,-0.142
-3.2344e-06,0.13
-3.2336e-06,-0.05
-3.2328e-06,-0.034
-3.2320e-06,0.114
-3.2312e-06,-0.148
-3.2304e-06,0.112
-3.2296e-06,-0.026
-3.2288e-06,-0.062
-3.2280e-06,0.13
-3.2272e-06,-0.142
-3.2264e-06,0.082
-3.2256e-06,0.008
-3.2248e-06,-0.1
-3.2240e-06,0.142
-3.2232e-06,-0.126
-3.2224e-06,0.056
-3.2216e-06,0.048
-3.2208e-06,-0.12
-3.2200e-06,0.146
-3.2192e-06,-0.102
-3.2184e-06,0.022
-3.2176e-06,0.076
-3.2168e-06,-0.13
-3.2160e-06,0.14
-3.2152e-06,-0.074
-3.2144e-06,-0.01
-3.2136e-06,0.102
-3.2128e-06,-0.144
-3.2120e-06,0.122
-3.2112e-06,-0.046
-3.2104e-06,-0.042
-3.2096e-06,0.124
-3.2088e-06,-0.144
-3.2080e-06,0.102
-3.2072e-06,-0.01
-3.2064e-06,-0.076
-3.2056e-06,0.134
-3.2048e-06,-0.136
-3.2040e-06,0.072
-3.2032e-06,0.024
-3.2024e-06,-0.104
-3.2016e-06,0.146
-3.2008e-06,-0.118
-3.2000e-06,0.044
-3.1992e-06,0.058
-3.1984e-06,-0.126
-3.1976e-06,0.142
-3.1968e-06,-0.092
-3.1960e-06,0.01
-3.1952e-06,0.084
-3.1944e-06,-0.142
-3.1936e-06,0.134
-3.1928e-06,-0.062
-3.1920e-06,-0.022
-3.1912e-06,0.108
-3.1904e-06,-0.148
-3.1896e-06,0.114
-3.1888e-06,-0.034
-3.1880e-06,-0.06
-3.1872e-06,0.13
-3.1864e-06,-0.14
-3.1856e-06,0.09
-3.1848e-06,-0.004
-3.1840e-06,-0.088
-3.1832e-06,0.142
-3.1824e-06,-0.13
-3.1816e-06,0.066
-3.1808e-06,0.034
-3.1800e-06,-0.114
-3.1792e-06,0.144
-3.1784e-06,-0.112
-3.1776e-06,0.034
-3.1768e-06,0.066
-3.1760e-06,-0.132
-3.1752e-06,0.14
-3.1744e-06,-0.086
-3.1736e-06,0
-3.1728e-06,0.096
-3.1720e-06,-0.144
-3.1712e-06,0.13
-3.1704e-06,-0.052
-3.1696e-06,-0.028
-3.1688e-06,0.114
-3.1680e-06,-0.144
-3.1672e-06,0.108
-3.1664e-06,-0.02
-3.1656e-06,-0.07
-3.1648e-06,0.134
-3.1640e-06,-0.136
-3.1632e-06,0.084
-3.1624e-06,0.01
-3.1616e-06,-0.104
-3.1608e-06,0.146
-3.1600e-06,-0.118
-3.1592e-06,0.054
-3.1584e-06,0.05
-3.1576e-06,-0.116
-3.1568e-06,0.144
-3.1560e-06,-0.1
-3.1552e-06,0.02
-3.1544e-06,0.074
-3.1536e-06,-0.134
-3.1528e-06,0.136
-3.1520e-06,-0.076
-3.1512e-06,-0.012
-3.1504e-06,0.102
-3.1496e-06,-0.146
-3.1488e-06,0.124
-3.1480e-06,-0.044
-3.1472e-06,-0.048
-3.1464e-06,0.13
-3.1456e-06,-0.148
-3.1448e-06,0.098
-3.1440e-06,-0.006
-3.1432e-06,-0.08
-3.1424e-06,0.136
-3.1416e-06,-0.132
-3.1408e-06,0.078
-3.1400e-06,0.024
-3.1392e-06,-0.108
-3.1384e-06,0.144
-3.1376e-06,-0.112
