sequence/ALL0009/F0009CH1.CSV

Record Length,2.500000e+03,,  -0.000000248000,   1.11200,
Sample Interval,2.000000e-10,,  -0.000000247800,   1.15200,
Trigger Point,1.240000000000e+03,,  -0.000000247600,   1.20000,
,,,  -0.000000247400,   1.23200,
,,,  -0.000000247200,   1.27200,
,,,  -0.000000247000,   1.29600,
Source,CH1,,  -0.000000246800,   1.32000,
Vertical Units,V,,  -0.000000246600,   1.34400,
Vertical Scale,2.000000e-01,,  -0.000000246400,   1.35200,
Vertical Offset,-1.296000e+00,,  -0.000000246200,   1.36000,
Horizontal Units,s,,  -0.000000246000,   1.35200,
Horizontal Scale,5.000000e-08,,  -0.000000245800,   1.34400,
Pt Fmt,Y,,  -0.000000245600,   1.32800,
Yzero,0.000000e+00,,  -0.000000245400,   1.30400,
Probe Atten,1.000000e+01,,  -0.000000245200,   1.27200,
Firmware Version,FV:v6.08,,  -0.000000245000,   1.24800,
,,,-00.000000244800,   1.21600,
,,,-00.000000244600,   1.19200,
,,,-00.000000244400,   1.16800,
,,,-00.000000244200,   1.14400,
,,,-00.000000244000,   1.12000,
,,,-00.000000243800,   1.10400,
,,,-00.000000243600,   1.08800,
,,,-00.000000243400,   1.07200,
,,,-00.000000243200,   1.06400,
,,,-00.000000243000,   1.05600,
,,,-00.000000242800,   1.05600,
,,,-00.000000242600,   1.05600,
,,,-00.000000242400,   1.05600,
,,,-00.000000242200,   1.05600,
,,,-00.000000242000,   1.05600,
,,,-00.000000241800,   1.05600,
,,,-00.000000241600,   1.05600,
,,,-00.000000241400,   1.05600,
,,,-00.000000241200,   1.05600,
,,,-00.000000241000,   1.06400,
,,,-00.000000240800,   1.05600,
,,,-00.000000240600,   1.05600,
,,,-00.000000240400,   1.04800,
,,,-00.000000240200,   1.03200,
,,,-00.000000240000,   1.02400,
,,,-00.000000239800,   1.00000,
,,,-00.000000239600,   0.98400,
,,,-00.000000239400,   0.96000,
,,,-00.000000239200,   0.94400,
,,,-00.000000239000,   0.92800,
,,,-00.000000238800,   0.91200,
,,,-00.000000238600,   0.90400,
,,,-00.000000238400,   0.89600,
,,,-00.000000238200,   0.89600,
,,,-00.000000238000,   0.89600,
,,,-00.000000237800,   0.90400,
,,,-00.000000237600,   0.92000,
,,,-00.000000237400,   0.92800,
,,,-00.000000237200,   0.95200,
,,,-00.000000237000,   0.97600,
,,,-00.000000236800,   1.01600,
,,,-00.000000236600,   1.05600,
,,,-00.000000236400,   1.09600,
,,,-00.000000236200,   1.13600,
,,,-00.000000236000,   1.17600,
,,,-00.000000235800,   1.21600,
,,,-00.000000235600,   1.25600,
,,,-00.000000235400,   1.28800,
,,,-00.000000235200,   1.31200,
,,,-00.000000235000,   1.33600,
,,,-00.000000234800,   1.34400,
,,,-00.000000234600,   1.35200,
,,,-00.000000234400,   1.34400,
,,,-00.000000234200,   1.33600,
,,,-00.000000234000,   1.32800,
,,,-00.000000233800,   1.30400,
,,,-00.000000233600,   1.28000,
,,,-00.000000233400,   1.24800,
,,,-00.000000233200,   1.22400,
,,,-00.000000233000,   1.18400,
,,,-00.000000232800,   1.15200,
,,,-00.000000232600,   1.12800,
,,,-00.000000232400,   1.10400,
,,,-00.000000232200,   1.08800,
,,,-00.000000232000,   1.08000,
,,,-00.000000231800,   1.07200,
,,,-00.000000231600,   1.07200,
,,,-00.000000231400,   1.06400,
,,,-00.000000231200,   1.05600,
,,,-00.000000231000,   1.04800,
,,,-00.000000230800,   1.04800,
,,,-00.000000230600,   1.04800,
,,,-00.000000230400,   1.04000,
,,,-00.000000230200,   1.04000,
,,,-00.000000230000,   1.04800,
,,,-00.000000229800,   1.05600,
,,,-00.000000229600,   1.06400,
,,,-00.000000229400,   1.06400,
,,,-00.000000229200,   1.06400,
,,,-00.000000229000,   1.05600,
,,,-00.000000228800,   1.04800,
,,,-00.000000228600,   1.04000,
,,,-00.000000228400,   1.02400,
,,,-00.000000228200,   1.00800,
,,,-00.000000228000,   0.98400,
,,,-00.000000227800,   0.96800,
,,,-00.000000227600,   0.95200,
,,,-00.000000227400,   0.93600,
,,,-00.000000227200,   0.92000,
,,,-00.000000227000,   0.91200,
,,,-00.000000226800,   0.90400,
,,,-00.000000226600,   0.90400,
,,,-00.000000226400,   0.89600,
,,,-00.000000226200,   0.90400,
,,,-00.000000226000,   0.91200,
,,,-00.000000225800,   0.93600,
,,,-00.000000225600,   0.96000,
,,,-00.000000225400,   0.98400,
,,,-00.000000225200,   1.01600,
,,,-00.000000225000,   1.04800,
,,,-00.000000224800,   1.08800,
,,,-00.000000224600,   1.13600,
,,,-00.000000224400,   1.16800,
,,,-00.000000224200,   1.20800,
,,,-00.000000224000,   1.24000,
,,,-00.000000223800,   1.27200,
,,,-00.000000223600,   1.30400,
,,,-00.000000223400,   1.32800,
,,,-00.000000223200,   1.35200,
,,,-00.000000223000,   1.36000,
,,,-00.000000222800,   1.36000,
,,,-00.000000222600,   1.36000,
,,,-00.000000222400,   1.34400,
,,,-00.000000222200,   1.32000,
,,,-00.000000222000,   1.29600,
,,,-00.000000221800,   1.27200,
,,,-00.000000221600,   1.24800,
,,,-00.000000221400,   1.21600,
,,,-00.000000221200,   1.18400,
,,,-00.000000221000,   1.15200,
,,,-00.000000220800,   1.12800,
,,,-00.000000220600,   1.11200,
,,,-00.000000220400,   1.08800,
,,,-00.000000220200,   1.07200,
,,,-00.000000220000,   1.06400,
,,,-00.000000219800,   1.05600,
,,,-00.000000219600,   1.05600,
,,,-00.000000219400,   1.05600,
,,,-00.000000219200,   1.05600,
,,,-00.000000219000,   1.04800,
,,,-00.000000218800,   1.04800,
,,,-00.000000218600,   1.04800,
,,,-00.000000218400,   1.04800,
,,,-00.000000218200,   1.04800,
,,,-00.000000218000,   1.04800,
,,,-00.000000217800,   1.04800,
,,,-00.000000217600,   1.04800,
,,,-00.000000217400,   1.04800,
,,,-00.000000217200,   1.04800,
,,,-00.000000217000,   1.04000,
,,,-00.000000216800,   1.03200,
,,,-00.000000216600,   1.01600,
,,,-00.000000216400,   1.00000,
,,,-00.000000216200,   0.98400,
,,,-00.000000216000,   0.96000,
,,,-00.000000215800,   0.94400,
,,,-00.000000215600,   0.92800,
,,,-00.000000215400,   0.91200,
,,,-00.000000215200,   0.91200,
,,,-00.000000215000,   0.90400,
,,,-00.000000214800,   0.90400,
,,,-00.000000214600,   0.90400,
,,,-00.000000214400,   0.90400,
,,,-00.000000214200,   0.92000,
,,,-00.000000214000,   0.93600,
,,,-00.000000213800,   0.96000,
,,,-00.000000213600,   0.99200,
,,,-00.000000213400,   1.01600,
,,,-00.000000213200,   1.04800,
,,,-00.000000213000,   1.08800,
,,,-00.000000212800,   1.12800,
,,,-00.000000212600,   1.17600,
,,,-00.000000212400,   1.21600,
,,,-00.000000212200,   1.24800,
,,,-00.000000212000,   1.28800,
,,,-00.000000211800,   1.32000,
,,,-00.000000211600,   1.34400,
,,,-00.000000211400,   1.36000,
,,,-00.000000211200,   1.36800,
,,,-00.000000211000,   1.36000,
,,,-00.000000210800,   1.35200,
,,,-00.000000210600,   1.33600,
,,,-00.000000210400,   1.30400,
,,,-00.000000210200,   1.28000,
,,,-00.000000210000,   1.24800,
,,,-00.000000209800,   1.21600,
,,,-00.000000209600,   1.19200,
,,,-00.000000209400,   1.16000,
,,,-00.000000209200,   1.12800,
,,,-00.000000209000,   1.10400,
,,,-00.000000208800,   1.08800,
,,,-00.000000208600,   1.08000,
,,,-00.000000208400,   1.07200,
,,,-00.000000208200,   1.06400,
,,,-00.000000208000,   1.05600,
,,,-00.000000207800,   1.04800,
,,,-00.000000207600,   1.04000,
,,,-00.000000207400,   1.03200,
,,,-00.000000207200,   1.03200,
,,,-00.000000207000,   1.04000,
,,,-00.000000206800,   1.04800,
,,,-00.000000206600,   1.05600,
,,,-00.000000206400,   1.05600,
,,,-00.000000206200,   1.06400,
,,,-00.000000206000,   1.06400,
,,,-00.000000205800,   1.05600,
,,,-00.000000205600,   1.05600,
,,,-00.000000205400,   1.04800,
,,,-00.000000205200,   1.03200,
,,,-00.000000205000,   1.02400,
,,,-00.000000204800,   1.00000,
,,,-00.000000204600,   0.98400,
,,,-00.000000204400,   0.96000,
,,,-00.000000204200,   0.94400,
,,,-00.000000204000,   0.92800,
,,,-00.000000203800,   0.92000,
,,,-00.000000203600,   0.91200,
,,,-00.000000203400,   0.90400,
,,,-00.000000203200,   0.90400,
,,,-00.000000203000,   0.90400,
,,,-00.000000202800,   0.90400,
,,,-00.000000202600,   0.92000,
,,,-00.000000202400,   0.92800,
,,,-00.000000202200,   0.95200,
,,,-00.000000202000,   0.97600,
,,,-00.000000201800,   1.00800,
,,,-00.000000201600,   1.04800,
,,,-00.000000201400,   1.08800,
,,,-00.000000201200,   1.12800,
,,,-00.000000201000,   1.16800,
,,,-00.000000200800,   1.21600,
,,,-00.000000200600,   1.25600,
,,,-00.000000200400,   1.28800,
,,,-00.000000200200,   1.32000,
,,,-00.000000200000,   1.34400,
,,,-00.000000199800,   1.36000,
,,,-00.000000199600,   1.36800,
,,,-00.000000199400,   1.36000,
,,,-00.000000199200,   1.35200,
,,,-00.000000199000,   1.33600,
,,,-00.000000198800,   1.31200,
,,,-00.000000198600,   1.28800,
,,,-00.000000198400,   1.25600,
,,,-00.000000198200,   1.22400,
,,,-00.000000198000,   1.19200,
,,,-00.000000197800,   1.16000,
,,,-00.000000197600,   1.13600,
,,,-00.000000197400,   1.11200,
,,,-00.000000197200,   1.09600,
,,,-00.000000197000,   1.08000,
,,,-00.000000196800,   1.07200,
,,,-00.000000196600,   1.07200,
,,,-00.000000196400,   1.06400,
,,,-00.000000196200,   1.06400,
,,,-00.000000196000,   1.05600,
,,,-00.000000195800,   1.05600,
,,,-00.000000195600,   1.05600,
,,,-00.000000195400,   1.04800,
,,,-00.000000195200,   1.04800,
,,,-00.000000195000,   1.05600,
,,,-00.000000194800,   1.06400,
,,,-00.000000194600,   1.07200,
,,,-00.000000194400,   1.07200,
,,,-00.000000194200,   1.07200,
,,,-00.000000194000,   1.07200,
,,,-00.000000193800,   1.06400,
,,,-00.000000193600,   1.06400,
,,,-00.000000193400,   1.04800,
,,,-00.000000193200,   1.03200,
,,,-00.000000193000,   1.00800,
,,,-00.000000192800,   0.99200,
,,,-00.000000192600,   0.96800,
,,,-00.000000192400,   0.94400,
,,,-00.000000192200,   0.92000,
,,,-00.000000192000,   0.90400,
,,,-00.000000191800,   0.89600,
,,,-00.000000191600,   0.89600,
,,,-00.000000191400,   0.89600,
,,,-00.000000191200,   0.89600,
,,,-00.000000191000,   0.90400,
,,,-00.000000190800,   0.91200,
,,,-00.000000190600,   0.93600,
,,,-00.000000190400,   0.96000,
,,,-00.000000190200,   0.99200,
,,,-00.000000190000,   1.03200,
,,,-00.000000189800,   1.06400,
,,,-00.000000189600,   1.10400,
,,,-00.000000189400,   1.13600,
,,,-00.000000189200,   1.17600,
,,,-00.000000189000,   1.21600,
,,,-00.000000188800,   1.24800,
,,,-00.000000188600,   1.28800,
,,,-00.000000188400,   1.31200,
,,,-00.000000188200,   1.34400,
,,,-00.000000188000,   1.35200,
,,,-00.000000187800,   1.36000,
,,,-00.000000187600,   1.36000,
,,,-00.000000187400,   1.34400,
,,,-00.000000187200,   1.32800,
,,,-00.000000187000,   1.30400,
,,,-00.000000186800,   1.28000,
,,,-00.000000186600,   1.24800,
,,,-00.000000186400,   1.21600,
,,,-00.000000186200,   1.18400,
,,,-00.000000186000,   1.15200,
,,,-00.000000185800,   1.12000,
,,,-00.000000185600,   1.09600,
,,,-00.000000185400,   1.08000,
,,,-00.000000185200,   1.06400,
,,,-00.000000185000,   1.05600,
,,,-00.000000184800,   1.05600,
,,,-00.000000184600,   1.05600,
,,,-00.000000184400,   1.05600,
,,,-00.000000184200,   1.05600,
,,,-00.000000184000,   1.05600,
,,,-00.000000183800,   1.05600,
,,,-00.000000183600,   1.05600,
,,,-00.000000183400,   1.05600,
,,,-00.000000183200,   1.05600,
,,,-00.000000183000,   1.06400,
,,,-00.000000182800,   1.07200,
,,,-00.000000182600,   1.08000,
,,,-00.000000182400,   1.07200,
,,,-00.000000182200,   1.06400,
,,,-00.000000182000,   1.05600,
,,,-00.000000181800,   1.04000,
,,,-00.000000181600,   1.02400,
,,,-00.000000181400,   1.00000,
,,,-00.000000181200,   0.98400,
,,,-00.000000181000,   0.96800,
,,,-00.000000180800,   0.95200,
,,,-00.000000180600,   0.93600,
,,,-00.000000180400,   0.91200,
,,,-00.000000180200,   0.89600,
,,,-00.000000180000,   0.88800,
,,,-00.000000179800,   0.88800,
,,,-00.000000179600,   0.89600,
,,,-00.000000179400,   0.90400,
,,,-00.000000179200,   0.92000,
,,,-00.000000179000,   0.93600,
,,,-00.000000178800,   0.95200,
,,,-00.000000178600,   0.98400,
,,,-00.000000178400,   1.00800,
,,,-00.000000178200,   1.04000,
,,,-00.000000178000,   1.08000,
,,,-00.000000177800,   1.12000,
,,,-00.000000177600,   1.16000,
,,,-00.000000177400,   1.20000,
,,,-00.000000177200,   1.24800,
,,,-00.000000177000,   1.28800,
,,,-00.000000176800,   1.32000,
,,,-00.000000176600,   1.35200,
,,,-00.000000176400,   1.36800,
,,,-00.000000176200,   1.37600,
,,,-00.000000176000,   1.37600,
,,,-00.000000175800,   1.36800,
,,,-00.000000175600,   1.35200,
,,,-00.000000175400,   1.32800,
,,,-00.000000175200,   1.30400,
,,,-00.000000175000,   1.26400,
,,,-00.000000174800,   1.23200,
,,,-00.000000174600,   1.20000,
,,,-00.000000174400,   1.16800,
,,,-00.000000174200,   1.14400,
,,,-00.000000174000,   1.12000,
,,,-00.000000173800,   1.10400,
,,,-00.000000173600,   1.08800,
,,,-00.000000173400,   1.07200,
,,,-00.000000173200,   1.05600,
,,,-00.000000173000,   1.04800,
,,,-00.000000172800,   1.04000,
,,,-00.000000172600,   1.04000,
,,,-00.000000172400,   1.03200,
,,,-00.000000172200,   1.03200,
,,,-00.000000172000,   1.04000,
,,,-00.000000171800,   1.04800,
,,,-00.000000171600,   1.05600,
,,,-00.000000171400,   1.05600,
,,,-00.000000171200,   1.05600,
,,,-00.000000171000,   1.05600,
,,,-00.000000170800,   1.05600,
,,,-00.000000170600,   1.05600,
,,,-00.000000170400,   1.04800,
,,,-00.000000170200,   1.03200,
,,,-00.000000170000,   1.02400,
,,,-00.000000169800,   1.00800,
,,,-00.000000169600,   1.00000,
,,,-00.000000169400,   0.97600,
,,,-00.000000169200,   0.96000,
,,,-00.000000169000,   0.94400,
,,,-00.000000168800,   0.92000,
,,,-00.000000168600,   0.91200,
,,,-00.000000168400,   0.89600,
,,,-00.000000168200,   0.88800,
,,,-00.000000168000,   0.88800,
,,,-00.000000167800,   0.89600,
,,,-00.000000167600,   0.92000,
,,,-00.000000167400,   0.93600,
,,,-00.000000167200,   0.95200,
,,,-00.000000167000,   0.97600,
,,,-00.000000166800,   1.00800,
,,,-00.000000166600,   1.04800,
,,,-00.000000166400,   1.08000,
,,,-00.000000166200,   1.11200,
,,,-00.000000166000,   1.15200,
,,,-00.000000165800,   1.20000,
,,,-00.000000165600,   1.24000,
,,,-00.000000165400,   1.27200,
,,,-00.000000165200,   1.29600,
,,,-00.000000165000,   1.32000,
,,,-00.000000164800,   1.33600,
,,,-00.000000164600,   1.35200,
,,,-00.000000164400,   1.35200,
,,,-00.000000164200,   1.35200,
,,,-00.000000164000,   1.34400,
,,,-00.000000163800,   1.32800,
,,,-00.000000163600,   1.30400,
,,,-00.000000163400,   1.27200,
,,,-00.000000163200,   1.24800,
,,,-00.000000163000,   1.21600,
,,,-00.000000162800,   1.18400,
,,,-00.000000162600,   1.16000,
,,,-00.000000162400,   1.12800,
,,,-00.000000162200,   1.10400,
,,,-00.000000162000,   1.08800,
,,,-00.000000161800,   1.07200,
,,,-00.000000161600,   1.07200,
,,,-00.000000161400,   1.06400,
,,,-00.000000161200,   1.06400,
,,,-00.000000161000,   1.05600,
,,,-00.000000160800,   1.05600,
,,,-00.000000160600,   1.05600,
,,,-00.000000160400,   1.04800,
,,,-00.000000160200,   1.05600,
,,,-00.000000160000,   1.05600,
,,,-00.000000159800,   1.05600,
,,,-00.000000159600,   1.06400,
,,,-00.000000159400,   1.06400,
,,,-00.000000159200,   1.06400,
,,,-00.000000159000,   1.05600,
,,,-00.000000158800,   1.04800,
,,,-00.000000158600,   1.04000,
,,,-00.000000158400,   1.02400,
,,,-00.000000158200,   1.01600,
,,,-00.000000158000,   0.99200,
,,,-00.000000157800,   0.97600,
,,,-00.000000157600,   0.96000,
,,,-00.000000157400,   0.94400,
,,,-00.000000157200,   0.92800,
,,,-00.000000157000,   0.92000,
,,,-00.000000156800,   0.90400,
,,,-00.000000156600,   0.89600,
,,,-00.000000156400,   0.88800,
,,,-00.000000156200,   0.88800,
,,,-00.000000156000,   0.89600,
,,,-00.000000155800,   0.92000,
,,,-00.000000155600,   0.94400,
,,,-00.000000155400,   0.96000,
,,,-00.000000155200,   0.99200,
,,,-00.000000155000,   1.02400,
,,,-00.000000154800,   1.05600,
,,,-00.000000154600,   1.09600,
,,,-00.000000154400,   1.13600,
,,,-00.000000154200,   1.17600,
,,,-00.000000154000,   1.21600,
,,,-00.000000153800,   1.25600,
,,,-00.000000153600,   1.28800,
,,,-00.000000153400,   1.31200,
,,,-00.000000153200,   1.33600,
,,,-00.000000153000,   1.34400,
,,,-00.000000152800,   1.35200,
,,,-00.000000152600,   1.35200,
,,,-00.000000152400,   1.34400,
,,,-00.000000152200,   1.32800,
,,,-00.000000152000,   1.30400,
,,,-00.000000151800,   1.27200,
,,,-00.000000151600,   1.24000,
,,,-00.000000151400,   1.20800,
,,,-00.000000151200,   1.18400,
,,,-00.000000151000,   1.16000,
,,,-00.000000150800,   1.13600,
,,,-00.000000150600,   1.12000,
,,,-00.000000150400,   1.10400,
,,,-00.000000150200,   1.08800,
,,,-00.000000150000,   1.08000,
,,,-00.000000149800,   1.07200,
,,,-00.000000149600,   1.06400,
,,,-00.000000149400,   1.05600,
,,,-00.000000149200,   1.05600,
,,,-00.000000149000,   1.05600,
,,,-00.000000148800,   1.05600,
,,,-00.000000148600,   1.06400,
,,,-00.000000148400,   1.06400,
,,,-00.000000148200,   1.06400,
,,,-00.000000148000,   1.05600,
,,,-00.000000147800,   1.05600,
,,,-00.000000147600,   1.05600,
,,,-00.000000147400,   1.05600,
,,,-00.000000147200,   1.05600,
,,,-00.000000147000,   1.04800,
,,,-00.000000146800,   1.04000,
,,,-00.000000146600,   1.03200,
,,,-00.000000146400,   1.00800,
,,,-00.000000146200,   0.99200,
,,,-00.000000146000,   0.97600,
,,,-00.000000145800,   0.96000,
,,,-00.000000145600,   0.94400,
,,,-00.000000145400,   0.92000,
,,,-00.000000145200,   0.90400,
,,,-00.000000145000,   0.88800,
,,,-00.000000144800,   0.88800,
,,,-00.000000144600,   0.89600,
,,,-00.000000144400,   0.90400,
,,,-00.000000144200,   0.92000,
,,,-00.000000144000,   0.93600,
,,,-00.000000143800,   0.95200,
,,,-00.000000143600,   0.97600,
,,,-00.000000143400,   1.00000,
,,,-00.000000143200,   1.03200,
,,,-00.000000143000,   1.06400,
,,,-00.000000142800,   1.10400,
,,,-00.000000142600,   1.14400,
,,,-00.000000142400,   1.18400,
,,,-00.000000142200,   1.22400,
,,,-00.000000142000,   1.26400,
,,,-00.000000141800,   1.29600,
,,,-00.000000141600,   1.32800,
,,,-00.000000141400,   1.34400,
,,,-00.000000141200,   1.35200,
,,,-00.000000141000,   1.36000,
,,,-00.000000140800,   1.35200,
,,,-00.000000140600,   1.34400,
,,,-00.000000140400,   1.32000,
,,,-00.000000140200,   1.29600,
,,,-00.000000140000,   1.26400,
,,,-00.000000139800,   1.23200,
,,,-00.000000139600,   1.20800,
,,,-00.000000139400,   1.17600,
,,,-00.000000139200,   1.14400,
,,,-00.000000139000,   1.12000,
,,,-00.000000138800,   1.10400,
,,,-00.000000138600,   1.08800,
,,,-00.000000138400,   1.07200,
,,,-00.000000138200,   1.06400,
,,,-00.000000138000,   1.05600,
,,,-00.000000137800,   1.05600,
,,,-00.000000137600,   1.05600,
,,,-00.000000137400,   1.05600,
,,,-00.000000137200,   1.05600,
,,,-00.000000137000,   1.05600,
,,,-00.000000136800,   1.05600,
,,,-00.000000136600,   1.05600,
,,,-00.000000136400,   1.05600,
,,,-00.000000136200,   1.05600,
,,,-00.000000136000,   1.05600,
,,,-00.000000135800,   1.05600,
,,,-00.000000135600,   1.05600,
,,,-00.000000135400,   1.04000,
,,,-00.000000135200,   1.03200,
,,,-00.000000135000,   1.01600,
,,,-00.000000134800,   1.00000,
,,,-00.000000134600,   0.98400,
,,,-00.000000134400,   0.96800,
,,,-00.000000134200,   0.95200,
,,,-00.000000134000,   0.92800,
,,,-00.000000133800,   0.91200,
,,,-00.000000133600,   0.90400,
,,,-00.000000133400,   0.89600,
,,,-00.000000133200,   0.89600,
,,,-00.000000133000,   0.89600,
,,,-00.000000132800,   0.89600,
,,,-00.000000132600,   0.91200,
,,,-00.000000132400,   0.92000,
,,,-00.000000132200,   0.94400,
,,,-00.000000132000,   0.96800,
,,,-00.000000131800,   1.00000,
,,,-00.000000131600,   1.04000,
,,,-00.000000131400,   1.07200,
,,,-00.000000131200,   1.11200,
,,,-00.000000131000,   1.15200,
,,,-00.000000130800,   1.19200,
,,,-00.000000130600,   1.23200,
,,,-00.000000130400,   1.26400,
,,,-00.000000130200,   1.29600,
,,,-00.000000130000,   1.32000,
,,,-00.000000129800,   1.34400,
,,,-00.000000129600,   1.36000,
,,,-00.000000129400,   1.36000,
,,,-00.000000129200,   1.36000,
,,,-00.000000129000,   1.35200,
,,,-00.000000128800,   1.32800,
,,,-00.000000128600,   1.30400,
,,,-00.000000128400,   1.27200,
,,,-00.000000128200,   1.24800,
,,,-00.000000128000,   1.21600,
,,,-00.000000127800,   1.17600,
,,,-00.000000127600,   1.15200,
,,,-00.000000127400,   1.12800,
,,,-00.000000127200,   1.11200,
,,,-00.000000127000,   1.09600,
,,,-00.000000126800,   1.08000,
,,,-00.000000126600,   1.07200,
,,,-00.000000126400,   1.06400,
,,,-00.000000126200,   1.05600,
,,,-00.000000126000,   1.04800,
,,,-00.000000125800,   1.04800,
,,,-00.000000125600,   1.04800,
,,,-00.000000125400,   1.04800,
,,,-00.000000125200,   1.05600,
