sequence/0.3m cavity/tek0032.csv

Model,MSO3054
Firmware Version,2.31

Waveform Type,Analog
Point Format,Y
Horizontal Units,s
Horizontal Scale,2e-06
Horizontal Delay,0
Sample Interval,2e-09
Record Length,10000
Gating,0.0% to 100.0%
Probe Attenuation,1
Vertical Units,V
Vertical Offset,0
Vertical Scale,0.1
Vertical Position,0
Label,
TIME,CH1
-1.000e-05,0.16
-9.998e-06,0.148
-9.996e-06,-0.008
-9.994e-06,-0.156
-9.992e-06,-0.128
-9.990e-06,0.036
-9.988e-06,0.176
-9.986e-06,0.136
-9.984e-06,-0.048
-9.982e-06,-0.168
-9.980e-06,-0.12
-9.978e-06,0.064
-9.976e-06,0.184
-9.974e-06,0.112
-9.972e-06,-0.064
-9.970e-06,-0.172
-9.968e-06,-0.096
-9.966e-06,0.088
-9.964e-06,0.184
-9.962e-06,0.088
-9.960e-06,-0.084
-9.958e-06,-0.168
-9.956e-06,-0.072
-9.954e-06,0.112
-9.952e-06,0.176
-9.950e-06,0.076
-9.948e-06,-0.112
-9.946e-06,-0.172
-9.944e-06,-0.048
-9.942e-06,0.136
-9.940e-06,0.18
-9.938e-06,0.032
-9.936e-06,-0.132
-9.934e-06,-0.156
-9.932e-06,-0.012
-9.930e-06,0.152
-9.928e-06,0.168
-9.926e-06,0.008
-9.924e-06,-0.156
-9.922e-06,-0.148
-9.920e-06,0.004
-9.918e-06,0.168
-9.916e-06,0.152
-9.914e-06,-0.008
-9.912e-06,-0.16
-9.910e-06,-0.128
-9.908e-06,0.032
-9.906e-06,0.18
-9.904e-06,0.132
-9.902e-06,-0.04
-9.900e-06,-0.172
-9.898e-06,-0.104
-9.896e-06,0.072
-9.894e-06,0.18
-9.892e-06,0.112
-9.890e-06,-0.056
-9.888e-06,-0.168
-9.886e-06,-0.092
-9.884e-06,0.092
-9.882e-06,0.184
-9.880e-06,0.084
-9.878e-06,-0.092
-9.876e-06,-0.172
-9.874e-06,-0.068
-9.872e-06,0.124
-9.870e-06,0.18
-9.868e-06,0.068
-9.866e-06,-0.116
-9.864e-06,-0.176
-9.862e-06,-0.04
-9.860e-06,0.14
-9.858e-06,0.176
-9.856e-06,0.036
-9.854e-06,-0.128
-9.852e-06,-0.152
-9.850e-06,-0.012
-9.848e-06,0.148
-9.846e-06,0.156
-9.844e-06,0.012
-9.842e-06,-0.148
-9.840e-06,-0.156
-9.838e-06,0.016
-9.836e-06,0.172
-9.834e-06,0.152
-9.832e-06,-0.016
-9.830e-06,-0.16
-9.828e-06,-0.132
-9.826e-06,0.044
-9.824e-06,0.18
-9.822e-06,0.128
-9.820e-06,-0.048
-9.818e-06,-0.168
-9.816e-06,-0.108
-9.814e-06,0.06
-9.812e-06,0.176
-9.810e-06,0.108
-9.808e-06,-0.08
-9.806e-06,-0.168
-9.804e-06,-0.08
-9.802e-06,0.1
-9.800e-06,0.184
-9.798e-06,0.08
-9.796e-06,-0.092
-9.794e-06,-0.172
-9.792e-06,-0.056
-9.790e-06,0.108
-9.788e-06,0.176
-9.786e-06,0.056
-9.784e-06,-0.12
-9.782e-06,-0.176
-9.780e-06,-0.036
-9.778e-06,0.132
-9.776e-06,0.16
-9.774e-06,0.032
-9.772e-06,-0.132
-9.770e-06,-0.148
-9.768e-06,-0.004
-9.766e-06,0.144
-9.764e-06,0.168
-9.762e-06,0.004
-9.760e-06,-0.152
-9.758e-06,-0.136
-9.756e-06,0.024
-9.754e-06,0.172
-9.752e-06,0.14
-9.750e-06,-0.02
-9.748e-06,-0.16
-9.746e-06,-0.128
-9.744e-06,0.044
-9.742e-06,0.176
-9.740e-06,0.124
-9.738e-06,-0.056
-9.736e-06,-0.168
-9.734e-06,-0.104
-9.732e-06,0.064
-9.730e-06,0.18
-9.728e-06,0.104
-9.726e-06,-0.08
-9.724e-06,-0.168
-9.722e-06,-0.092
-9.720e-06,0.096
-9.718e-06,0.176
-9.716e-06,0.084
-9.714e-06,-0.092
-9.712e-06,-0.168
-9.710e-06,-0.06
-9.708e-06,0.124
-9.706e-06,0.172
-9.704e-06,0.06
-9.702e-06,-0.12
-9.700e-06,-0.164
-9.698e-06,-0.044
-9.696e-06,0.14
-9.694e-06,0.172
-9.692e-06,0.028
-9.690e-06,-0.132
-9.688e-06,-0.164
-9.686e-06,-0.008
-9.684e-06,0.164
-9.682e-06,0.16
-9.680e-06,-0.004
-9.678e-06,-0.148
-9.676e-06,-0.148
-9.674e-06,0.02
-9.672e-06,0.168
-9.670e-06,0.148
-9.668e-06,-0.02
-9.666e-06,-0.164
-9.664e-06,-0.124
-9.662e-06,0.036
-9.660e-06,0.184
-9.658e-06,0.132
-9.656e-06,-0.052
-9.654e-06,-0.176
-9.652e-06,-0.108
-9.650e-06,0.076
-9.648e-06,0.184
-9.646e-06,0.096
-9.644e-06,-0.076
-9.642e-06,-0.156
-9.640e-06,-0.084
-9.638e-06,0.096
-9.636e-06,0.184
-9.634e-06,0.08
-9.632e-06,-0.096
-9.630e-06,-0.172
-9.628e-06,-0.06
-9.626e-06,0.124
-9.624e-06,0.168
-9.622e-06,0.048
-9.620e-06,-0.116
-9.618e-06,-0.168
-9.616e-06,-0.02
-9.614e-06,0.14
-9.612e-06,0.176
-9.610e-06,0.016
-9.608e-06,-0.132
-9.606e-06,-0.164
-9.604e-06,-0.008
-9.602e-06,0.152
-9.600e-06,0.16
-9.598e-06,-0.004
-9.596e-06,-0.148
-9.594e-06,-0.14
-9.592e-06,0.016
-9.590e-06,0.164
-9.588e-06,0.14
-9.586e-06,-0.024
-9.584e-06,-0.156
-9.582e-06,-0.12
-9.580e-06,0.048
-9.578e-06,0.176
-9.576e-06,0.12
-9.574e-06,-0.06
-9.572e-06,-0.172
-9.570e-06,-0.108
-9.568e-06,0.076
-9.566e-06,0.184
-9.564e-06,0.1
-9.562e-06,-0.08
-9.560e-06,-0.172
-9.558e-06,-0.076
-9.556e-06,0.104
-9.554e-06,0.188
-9.552e-06,0.08
-9.550e-06,-0.104
-9.548e-06,-0.18
-9.546e-06,-0.052
-9.544e-06,0.124
-9.542e-06,0.18
-9.540e-06,0.052
-9.538e-06,-0.112
-9.536e-06,-0.164
-9.534e-06,-0.04
-9.532e-06,0.14
-9.530e-06,0.176
-9.528e-06,0.02
-9.526e-06,-0.132
-9.524e-06,-0.148
-9.522e-06,-0.004
-9.520e-06,0.16
-9.518e-06,0.164
-9.516e-06,0.004
-9.514e-06,-0.156
-9.512e-06,-0.14
-9.510e-06,0.016
-9.508e-06,0.176
-9.506e-06,0.144
-9.504e-06,-0.02
-9.502e-06,-0.168
-9.500e-06,-0.124
-9.498e-06,0.056
-9.496e-06,0.176
-9.494e-06,0.128
-9.492e-06,-0.052
-9.490e-06,-0.176
-9.488e-06,-0.1
-9.486e-06,0.076
-9.484e-06,0.184
-9.482e-06,0.108
-9.480e-06,-0.076
-9.478e-06,-0.172
-9.476e-06,-0.08
-9.474e-06,0.108
-9.472e-06,0.188
-9.470e-06,0.08
-9.468e-06,-0.104
-9.466e-06,-0.176
-9.464e-06,-0.044
-9.462e-06,0.132
-9.460e-06,0.176
-9.458e-06,0.048
-9.456e-06,-0.132
-9.454e-06,-0.172
-9.452e-06,-0.028
-9.450e-06,0.144
-9.448e-06,0.164
-9.446e-06,0.024
-9.444e-06,-0.144
-9.442e-06,-0.148
-9.440e-06,0.012
-9.438e-06,0.156
-9.436e-06,0.16
-9.434e-06,0
-9.432e-06,-0.156
-9.430e-06,-0.132
-9.428e-06,0.024
-9.426e-06,0.168
-9.424e-06,0.14
-9.422e-06,-0.032
-9.420e-06,-0.168
-9.418e-06,-0.12
-9.416e-06,0.048
-9.414e-06,0.172
-9.412e-06,0.112
-9.410e-06,-0.056
-9.408e-06,-0.176
-9.406e-06,-0.092
-9.404e-06,0.084
-9.402e-06,0.192
-9.400e-06,0.096
-9.398e-06,-0.08
-9.396e-06,-0.172
-9.394e-06,-0.076
-9.392e-06,0.112
-9.390e-06,0.184
-9.388e-06,0.064
-9.386e-06,-0.104
-9.384e-06,-0.168
-9.382e-06,-0.044
-9.380e-06,0.124
-9.378e-06,0.18
-9.376e-06,0.036
-9.374e-06,-0.124
-9.372e-06,-0.164
-9.370e-06,-0.028
-9.368e-06,0.148
-9.366e-06,0.168
-9.364e-06,0.024
-9.362e-06,-0.148
-9.360e-06,-0.156
-9.358e-06,0.004
-9.356e-06,0.152
-9.354e-06,0.152
-9.352e-06,-0.012
-9.350e-06,-0.16
-9.348e-06,-0.14
-9.346e-06,0.032
-9.344e-06,0.172
-9.342e-06,0.14
-9.340e-06,-0.032
-9.338e-06,-0.16
-9.336e-06,-0.116
-9.334e-06,0.06
-9.332e-06,0.176
-9.330e-06,0.112
-9.328e-06,-0.06
-9.326e-06,-0.168
-9.324e-06,-0.088
-9.322e-06,0.084
-9.320e-06,0.184
-9.318e-06,0.104
-9.316e-06,-0.08
-9.314e-06,-0.172
-9.312e-06,-0.072
-9.310e-06,0.108
-9.308e-06,0.172
-9.306e-06,0.064
-9.304e-06,-0.1
-9.302e-06,-0.164
-9.300e-06,-0.048
-9.298e-06,0.132
-9.296e-06,0.176
-9.294e-06,0.04
-9.292e-06,-0.124
-9.290e-06,-0.152
-9.288e-06,-0.02
-9.286e-06,0.148
-9.284e-06,0.172
-9.282e-06,0.012
-9.280e-06,-0.152
-9.278e-06,-0.144
-9.276e-06,0.008
-9.274e-06,0.152
-9.272e-06,0.156
-9.270e-06,-0.008
-9.268e-06,-0.156
-9.266e-06,-0.132
-9.264e-06,0.028
-9.262e-06,0.184
-9.260e-06,0.132
-9.258e-06,-0.036
-9.256e-06,-0.164
-9.254e-06,-0.116
-9.252e-06,0.048
-9.250e-06,0.188
-9.248e-06,0.112
-9.246e-06,-0.06
-9.244e-06,-0.164
-9.242e-06,-0.096
-9.240e-06,0.096
-9.238e-06,0.184
-9.236e-06,0.096
-9.234e-06,-0.088
-9.232e-06,-0.168
-9.230e-06,-0.072
-9.228e-06,0.112
-9.226e-06,0.176
-9.224e-06,0.068
-9.222e-06,-0.104
-9.220e-06,-0.172
-9.218e-06,-0.04
-9.216e-06,0.132
-9.214e-06,0.176
-9.212e-06,0.032
-9.210e-06,-0.132
-9.208e-06,-0.156
-9.206e-06,-0.02
-9.204e-06,0.152
-9.202e-06,0.168
-9.200e-06,0.008
-9.198e-06,-0.148
-9.196e-06,-0.152
-9.194e-06,0.008
-9.192e-06,0.164
-9.190e-06,0.144
-9.188e-06,-0.016
-9.186e-06,-0.164
-9.184e-06,-0.132
-9.182e-06,0.036
-9.180e-06,0.172
-9.178e-06,0.128
-9.176e-06,-0.048
-9.174e-06,-0.168
-9.172e-06,-0.112
-9.170e-06,0.064
-9.168e-06,0.176
-9.166e-06,0.116
-9.164e-06,-0.068
-9.162e-06,-0.168
-9.160e-06,-0.096
-9.158e-06,0.092
-9.156e-06,0.184
-9.154e-06,0.092
-9.152e-06,-0.092
-9.150e-06,-0.172
-9.148e-06,-0.068
-9.146e-06,0.112
-9.144e-06,0.18
-9.142e-06,0.056
-9.140e-06,-0.116
-9.138e-06,-0.156
-9.136e-06,-0.04
-9.134e-06,0.136
-9.132e-06,0.176
-9.130e-06,0.04
-9.128e-06,-0.132
-9.126e-06,-0.164
-9.124e-06,-0.012
-9.122e-06,0.144
-9.120e-06,0.164
-9.118e-06,0.012
-9.116e-06,-0.16
-9.114e-06,-0.148
-9.112e-06,0.016
-9.110e-06,0.168
-9.108e-06,0.156
-9.106e-06,-0.016
-9.104e-06,-0.152
-9.102e-06,-0.124
-9.100e-06,0.036
-9.098e-06,0.18
-9.096e-06,0.124
-9.094e-06,-0.048
-9.092e-06,-0.168
-9.090e-06,-0.112
-9.088e-06,0.064
-9.086e-06,0.184
-9.084e-06,0.112
-9.082e-06,-0.076
-9.080e-06,-0.172
-9.078e-06,-0.08
-9.076e-06,0.092
-9.074e-06,0.18
-9.072e-06,0.088
-9.070e-06,-0.088
-9.068e-06,-0.172
-9.066e-06,-0.072
-9.064e-06,0.108
-9.062e-06,0.184
-9.060e-06,0.06
-9.058e-06,-0.112
-9.056e-06,-0.176
-9.054e-06,-0.04
-9.052e-06,0.132
-9.050e-06,0.172
-9.048e-06,0.032
-9.046e-06,-0.136
-9.044e-06,-0.156
-9.042e-06,-0.008
-9.040e-06,0.14
-9.038e-06,0.164
-9.036e-06,0.008
-9.034e-06,-0.148
-9.032e-06,-0.148
-9.030e-06,0.016
-9.028e-06,0.168
-9.026e-06,0.148
-9.024e-06,-0.02
-9.022e-06,-0.156
-9.020e-06,-0.132
-9.018e-06,0.048
-9.016e-06,0.18
-9.014e-06,0.128
-9.012e-06,-0.048
-9.010e-06,-0.172
-9.008e-06,-0.112
-9.006e-06,0.068
-9.004e-06,0.18
-9.002e-06,0.1
-9.000e-06,-0.076
-8.998e-06,-0.176
-8.996e-06,-0.092
-8.994e-06,0.1
-8.992e-06,0.184
-8.990e-06,0.076
-8.988e-06,-0.088
-8.986e-06,-0.172
-8.984e-06,-0.064
-8.982e-06,0.112
-8.980e-06,0.18
-8.978e-06,0.06
-8.976e-06,-0.12
-8.974e-06,-0.16
-8.972e-06,-0.044
-8.970e-06,0.14
-8.968e-06,0.176
-8.966e-06,0.032
-8.964e-06,-0.132
-8.962e-06,-0.156
-8.960e-06,-0.004
-8.958e-06,0.16
-8.956e-06,0.156
-8.954e-06,0.008
-8.952e-06,-0.16
-8.950e-06,-0.144
-8.948e-06,0.02
-8.946e-06,0.16
-8.944e-06,0.148
-8.942e-06,-0.02
-8.940e-06,-0.156
-8.938e-06,-0.12
-8.936e-06,0.04
-8.934e-06,0.18
-8.932e-06,0.12
-8.930e-06,-0.052
-8.928e-06,-0.176
-8.926e-06,-0.092
-8.924e-06,0.072
-8.922e-06,0.18
-8.920e-06,0.104
-8.918e-06,-0.076
-8.916e-06,-0.168
-8.914e-06,-0.084
-8.912e-06,0.1
-8.910e-06,0.192
-8.908e-06,0.08
-8.906e-06,-0.092
-8.904e-06,-0.176
-8.902e-06,-0.064
-8.900e-06,0.124
-8.898e-06,0.176
-8.896e-06,0.048
-8.894e-06,-0.112
-8.892e-06,-0.168
-8.890e-06,-0.032
-8.888e-06,0.14
-8.886e-06,0.176
-8.884e-06,0.032
-8.882e-06,-0.136
-8.880e-06,-0.156
-8.878e-06,-0.004
-8.876e-06,0.156
-8.874e-06,0.16
-8.872e-06,0.004
-8.870e-06,-0.14
-8.868e-06,-0.132
-8.866e-06,0.02
-8.864e-06,0.168
-8.862e-06,0.152
-8.860e-06,-0.02
-8.858e-06,-0.16
-8.856e-06,-0.12
-8.854e-06,0.04
-8.852e-06,0.184
-8.850e-06,0.132
-8.848e-06,-0.048
-8.846e-06,-0.156
-8.844e-06,-0.1
-8.842e-06,0.08
-8.840e-06,0.176
-8.838e-06,0.104
-8.836e-06,-0.08
-8.834e-06,-0.164
-8.832e-06,-0.084
-8.830e-06,0.1
-8.828e-06,0.196
-8.826e-06,0.088
-8.824e-06,-0.092
-8.822e-06,-0.164
-8.820e-06,-0.048
-8.818e-06,0.124
-8.816e-06,0.184
-8.814e-06,0.048
-8.812e-06,-0.128
-8.810e-06,-0.168
-8.808e-06,-0.028
-8.806e-06,0.144
-8.804e-06,0.176
-8.802e-06,0.028
-8.800e-06,-0.148
-8.798e-06,-0.152
-8.796e-06,0
-8.794e-06,0.156
-8.792e-06,0.16
-8.790e-06,-0.004
-8.788e-06,-0.148
-8.786e-06,-0.14
-8.784e-06,0.036
-8.782e-06,0.168
-8.780e-06,0.144
-8.778e-06,-0.028
-8.776e-06,-0.156
-8.774e-06,-0.116
-8.772e-06,0.052
-8.770e-06,0.18
-8.768e-06,0.124
-8.766e-06,-0.056
-8.764e-06,-0.168
-8.762e-06,-0.108
-8.760e-06,0.088
-8.758e-06,0.192
-8.756e-06,0.1
-8.754e-06,-0.084
-8.752e-06,-0.172
-8.750e-06,-0.084
-8.748e-06,0.092
-8.746e-06,0.18
-8.744e-06,0.076
-8.742e-06,-0.108
-8.740e-06,-0.172
-8.738e-06,-0.048
-8.736e-06,0.124
-8.734e-06,0.18
-8.732e-06,0.056
-8.730e-06,-0.128
-8.728e-06,-0.164
-8.726e-06,-0.02
-8.724e-06,0.148
-8.722e-06,0.168
-8.720e-06,0.024
-8.718e-06,-0.136
-8.716e-06,-0.148
-8.714e-06,0.004
-8.712e-06,0.164
-8.710e-06,0.152
-8.708e-06,-0.004
-8.706e-06,-0.152
-8.704e-06,-0.14
-8.702e-06,0.028
-8.700e-06,0.164
-8.698e-06,0.136
-8.696e-06,-0.032
-8.694e-06,-0.168
-8.692e-06,-0.12
-8.690e-06,0.056
-8.688e-06,0.184
-8.686e-06,0.112
-8.684e-06,-0.06
-8.682e-06,-0.168
-8.680e-06,-0.096
-8.678e-06,0.076
-8.676e-06,0.188
-8.674e-06,0.1
-8.672e-06,-0.096
-8.670e-06,-0.176
-8.668e-06,-0.076
-8.666e-06,0.104
-8.664e-06,0.188
-8.662e-06,0.068
-8.660e-06,-0.104
-8.658e-06,-0.168
-8.656e-06,-0.052
-8.654e-06,0.128
-8.652e-06,0.18
-8.650e-06,0.052
-8.648e-06,-0.136
-8.646e-06,-0.164
-8.644e-06,-0.016
-8.642e-06,0.152
-8.640e-06,0.164
-8.638e-06,0.02
-8.636e-06,-0.148
-8.634e-06,-0.156
-8.632e-06,0.008
-8.630e-06,0.164
-8.628e-06,0.148
-8.626e-06,0
-8.624e-06,-0.16
-8.622e-06,-0.14
-8.620e-06,0.024
-8.618e-06,0.176
-8.616e-06,0.136
-8.614e-06,-0.028
-8.612e-06,-0.164
-8.610e-06,-0.12
-8.608e-06,0.056
-8.606e-06,0.18
-8.604e-06,0.12
-8.602e-06,-0.056
-8.600e-06,-0.172
-8.598e-06,-0.096
-8.596e-06,0.084
-8.594e-06,0.188
-8.592e-06,0.1
-8.590e-06,-0.092
-8.588e-06,-0.168
-8.586e-06,-0.068
-8.584e-06,0.104
-8.582e-06,0.184
-8.580e-06,0.076
-8.578e-06,-0.112
-8.576e-06,-0.164
-8.574e-06,-0.052
-8.572e-06,0.124
-8.570e-06,0.184
-8.568e-06,0.048
-8.566e-06,-0.132
-8.564e-06,-0.16
-8.562e-06,-0.02
-8.560e-06,0.136
-8.558e-06,0.176
-8.556e-06,0.02
-8.554e-06,-0.144
-8.552e-06,-0.144
-8.550e-06,0.008
-8.548e-06,0.156
-8.546e-06,0.148
-8.544e-06,-0.004
-8.542e-06,-0.16
-8.540e-06,-0.14
-8.538e-06,0.028
-8.536e-06,0.176
-8.534e-06,0.14
-8.532e-06,-0.036
-8.530e-06,-0.164
-8.528e-06,-0.132
-8.526e-06,0.064
-8.524e-06,0.176
-8.522e-06,0.112
-8.520e-06,-0.064
-8.518e-06,-0.168
-8.516e-06,-0.092
-8.514e-06,0.092
-8.512e-06,0.188
-8.510e-06,0.092
-8.508e-06,-0.084
-8.506e-06,-0.176
-8.504e-06,-0.076
-8.502e-06,0.112
-8.500e-06,0.176
-8.498e-06,0.064
-8.496e-06,-0.108
-8.494e-06,-0.164
-8.492e-06,-0.04
-8.490e-06,0.128
-8.488e-06,0.184
-8.486e-06,0.036
-8.484e-06,-0.128
-8.482e-06,-0.164
-8.480e-06,-0.012
-8.478e-06,0.152
-8.476e-06,0.164
-8.474e-06,0.016
-8.472e-06,-0.14
-8.470e-06,-0.152
-8.468e-06,0.012
-8.466e-06,0.172
-8.464e-06,0.156
-8.462e-06,-0.008
-8.460e-06,-0.164
-8.458e-06,-0.132
-8.456e-06,0.04
-8.454e-06,0.18
-8.452e-06,0.136
-8.450e-06,-0.04
-8.448e-06,-0.168
-8.446e-06,-0.112
-8.444e-06,0.06
-8.442e-06,0.176
-8.440e-06,0.116
-8.438e-06,-0.072
-8.436e-06,-0.168
-8.434e-06,-0.088
-8.432e-06,0.084
-8.430e-06,0.184
-8.428e-06,0.088
-8.426e-06,-0.092
-8.424e-06,-0.176
-8.422e-06,-0.068
-8.420e-06,0.124
-8.418e-06,0.184
-8.416e-06,0.06
-8.414e-06,-0.108
-8.412e-06,-0.164
-8.410e-06,-0.04
-8.408e-06,0.128
-8.406e-06,0.18
-8.404e-06,0.036
-8.402e-06,-0.12
-8.400e-06,-0.16
-8.398e-06,-0.02
-8.396e-06,0.152
-8.394e-06,0.164
-8.392e-06,0.016
-8.390e-06,-0.148
-8.388e-06,-0.152
-8.386e-06,0.016
-8.384e-06,0.168
-8.382e-06,0.152
-8.380e-06,-0.02
-8.378e-06,-0.16
-8.376e-06,-0.128
-8.374e-06,0.04
-8.372e-06,0.168
-8.370e-06,0.132
-8.368e-06,-0.04
-8.366e-06,-0.168
-8.364e-06,-0.116
-8.362e-06,0.068
-8.360e-06,0.188
-8.358e-06,0.112
-8.356e-06,-0.072
-8.354e-06,-0.156
-8.352e-06,-0.088
-8.350e-06,0.096
-8.348e-06,0.188
-8.346e-06,0.088
-8.344e-06,-0.092
-8.342e-06,-0.168
-8.340e-06,-0.06
-8.338e-06,0.112
-8.336e-06,0.188
-8.334e-06,0.068
-8.332e-06,-0.12
-8.330e-06,-0.176
-8.328e-06,-0.04
-8.326e-06,0.136
-8.324e-06,0.176
-8.322e-06,0.036
-8.320e-06,-0.128
-8.318e-06,-0.156
-8.316e-06,-0.008
-8.314e-06,0.164
-8.312e-06,0.168
-8.310e-06,0.004
-8.308e-06,-0.148
-8.306e-06,-0.144
-8.304e-06,0.016
-8.302e-06,0.156
-8.300e-06,0.156
-8.298e-06,-0.02
-8.296e-06,-0.16
-8.294e-06,-0.124
-8.292e-06,0.04
-8.290e-06,0.18
-8.288e-06,0.124
-8.286e-06,-0.048
-8.284e-06,-0.168
-8.282e-06,-0.108
-8.280e-06,0.076
-8.278e-06,0.176
-8.276e-06,0.112
-8.274e-06,-0.076
-8.272e-06,-0.172
-8.270e-06,-0.092
-8.268e-06,0.092
-8.266e-06,0.196
-8.264e-06,0.084
-8.262e-06,-0.1
-8.260e-06,-0.164
-8.258e-06,-0.068
-8.256e-06,0.124
-8.254e-06,0.18
-8.252e-06,0.064
-8.250e-06,-0.112
-8.248e-06,-0.16
-8.246e-06,-0.032
-8.244e-06,0.132
-8.242e-06,0.176
-8.240e-06,0.028
-8.238e-06,-0.132
-8.236e-06,-0.156
-8.234e-06,-0.012
-8.232e-06,0.148
-8.230e-06,0.164
-8.228e-06,0.012
-8.226e-06,-0.144
-8.224e-06,-0.152
-8.222e-06,0.024
-8.220e-06,0.164
-8.218e-06,0.16
-8.216e-06,-0.012
-8.214e-06,-0.156
-8.212e-06,-0.124
-8.210e-06,0.044
-8.208e-06,0.18
-8.206e-06,0.128
-8.204e-06,-0.048
-8.202e-06,-0.172
-8.200e-06,-0.108
-8.198e-06,0.072
-8.196e-06,0.176
-8.194e-06,0.104
-8.192e-06,-0.072
-8.190e-06,-0.18
-8.188e-06,-0.088
-8.186e-06,0.092
-8.184e-06,0.196
-8.182e-06,0.08
-8.180e-06,-0.096
-8.178e-06,-0.168
-8.176e-06,-0.06
-8.174e-06,0.124
-8.172e-06,0.172
-8.170e-06,0.06
-8.168e-06,-0.12
-8.166e-06,-0.16
-8.164e-06,-0.032
-8.162e-06,0.136
-8.160e-06,0.168
-8.158e-06,0.024
-8.156e-06,-0.14
-8.154e-06,-0.152
-8.152e-06,-0.004
-8.150e-06,0.164
-8.148e-06,0.156
-8.146e-06,0.008
-8.144e-06,-0.156
-8.142e-06,-0.14
-8.140e-06,0.028
-8.138e-06,0.172
-8.136e-06,0.144
-8.134e-06,-0.024
-8.132e-06,-0.16
-8.130e-06,-0.132
-8.128e-06,0.056
-8.126e-06,0.176
-8.124e-06,0.12
-8.122e-06,-0.056
-8.120e-06,-0.16
-8.118e-06,-0.112
-8.116e-06,0.076
-8.114e-06,0.18
-8.112e-06,0.108
-8.110e-06,-0.08
-8.108e-06,-0.168
-8.106e-06,-0.084
-8.104e-06,0.1
-8.102e-06,0.18
-8.100e-06,0.084
-8.098e-06,-0.1
-8.096e-06,-0.18
-8.094e-06,-0.056
-8.092e-06,0.128
-8.090e-06,0.192
-8.088e-06,0.056
-8.086e-06,-0.124
-8.084e-06,-0.176
-8.082e-06,-0.024
-8.080e-06,0.144
-8.078e-06,0.18
-8.076e-06,0.028
-8.074e-06,-0.14
-8.072e-06,-0.16
-8.070e-06,-0.008
-8.068e-06,0.152
-8.066e-06,0.164
-8.064e-06,-0.004
-8.062e-06,-0.152
-8.060e-06,-0.144
-8.058e-06,0.024
-8.056e-06,0.184
-8.054e-06,0.148
-8.052e-06,-0.024
-8.050e-06,-0.16
-8.048e-06,-0.124
-8.046e-06,0.044
-8.044e-06,0.188
-8.042e-06,0.12
-8.040e-06,-0.056
-8.038e-06,-0.172
-8.036e-06,-0.1
-8.034e-06,0.076
-8.032e-06,0.188
-8.030e-06,0.096
-8.028e-06,-0.084
-8.026e-06,-0.176
-8.024e-06,-0.096
-8.022e-06,0.1
-8.020e-06,0.18
-8.018e-06,0.084
-8.016e-06,-0.1
-8.014e-06,-0.172
-8.012e-06,-0.056
-8.010e-06,0.12
-8.008e-06,0.184
-8.006e-06,0.052
-8.004e-06,-0.12
-8.002e-06,-0.16
-8.000e-06,-0.028
-7.998e-06,0.132
-7.996e-06,0.168
-7.994e-06,0.028
-7.992e-06,-0.136
-7.990e-06,-0.156
-7.988e-06,-0.004
-7.986e-06,0.16
-7.984e-06,0.148
-7.982e-06,-0.008
-7.980e-06,-0.152
-7.978e-06,-0.14
-7.976e-06,0.028
-7.974e-06,0.176
-7.972e-06,0.136
-7.970e-06,-0.028
-7.968e-06,-0.164
-7.966e-06,-0.12
-7.964e-06,0.052
-7.962e-06,0.184
-7.960e-06,0.112
-7.958e-06,-0.056
-7.956e-06,-0.176
-7.954e-06,-0.1
-7.952e-06,0.088
-7.950e-06,0.188
-7.948e-06,0.104
-7.946e-06,-0.08
-7.944e-06,-0.172
-7.942e-06,-0.076
-7.940e-06,0.096
-7.938e-06,0.18
-7.936e-06,0.084
-7.934e-06,-0.104
-7.932e-06,-0.172
-7.930e-06,-0.056
-7.928e-06,0.132
-7.926e-06,0.18
-7.924e-06,0.044
-7.922e-06,-0.124
-7.920e-06,-0.164
-7.918e-06,-0.032
-7.916e-06,0.14
-7.914e-06,0.168
-7.912e-06,0.02
-7.910e-06,-0.144
-7.908e-06,-0.148
-7.906e-06,0.012
-7.904e-06,0.164
-7.902e-06,0.156
-7.900e-06,-0.008
-7.898e-06,-0.152
-7.896e-06,-0.144
-7.894e-06,0.02
-7.892e-06,0.176
-7.890e-06,0.136
-7.888e-06,-0.036
-7.886e-06,-0.16
-7.884e-06,-0.128
-7.882e-06,0.048
-7.880e-06,0.184
-7.878e-06,0.116
-7.876e-06,-0.06
-7.874e-06,-0.172
-7.872e-06,-0.1
-7.870e-06,0.076
-7.868e-06,0.176
-7.866e-06,0.088
-7.864e-06,-0.092
-7.862e-06,-0.168
-7.860e-06,-0.072
-7.858e-06,0.104
-7.856e-06,0.176
-7.854e-06,0.068
-7.852e-06,-0.104
-7.850e-06,-0.168
-7.848e-06,-0.052
-7.846e-06,0.124
-7.844e-06,0.18
-7.842e-06,0.048
-7.840e-06,-0.124
-7.838e-06,-0.168
-7.836e-06,-0.024
-7.834e-06,0.148
-7.832e-06,0.168
-7.830e-06,0.012
-7.828e-06,-0.148
-7.826e-06,-0.156
-7.824e-06,0.008
-7.822e-06,0.16
-7.820e-06,0.152
-7.818e-06,-0.008
-7.816e-06,-0.156
-7.814e-06,-0.136
-7.812e-06,0.036
-7.810e-06,0.168
-7.808e-06,0.14
-7.806e-06,-0.032
-7.804e-06,-0.168
-7.802e-06,-0.112
-7.800e-06,0.06
-7.798e-06,0.176
-7.796e-06,0.128
-7.794e-06,-0.056
-7.792e-06,-0.176
-7.790e-06,-0.1
-7.788e-06,0.076
-7.786e-06,0.18
-7.784e-06,0.108
-7.782e-06,-0.088
-7.780e-06,-0.172
-7.778e-06,-0.068
-7.776e-06,0.116
-7.774e-06,0.18
-7.772e-06,0.072
-7.770e-06,-0.104
-7.768e-06,-0.168
-7.766e-06,-0.048
-7.764e-06,0.128
-7.762e-06,0.176
-7.760e-06,0.044
-7.758e-06,-0.132
-7.756e-06,-0.164
-7.754e-06,-0.008
-7.752e-06,0.144
-7.750e-06,0.172
-7.748e-06,0.016
-7.746e-06,-0.14
-7.744e-06,-0.152
-7.742e-06,0.004
-7.740e-06,0.156
-7.738e-06,0.152
-7.736e-06,-0.012
-7.734e-06,-0.156
-7.732e-06,-0.14
-7.730e-06,0.04
-7.728e-06,0.176
-7.726e-06,0.136
-7.724e-06,-0.04
-7.722e-06,-0.168
