sequence/original data/1.8m cavity 500MHz OSC/tek0020.csv

Model,MSO3054
Firmware Version,2.31

Waveform Type,Analog
Point Format,Y
Horizontal Units,s
Horizontal Scale,4e-06
Horizontal Delay,0
Sample Interval,4e-09
Record Length,10000
Gating,0.0% to 100.0%
Probe Attenuation,1
Vertical Units,V
Vertical Offset,0
Vertical Scale,0.05
Vertical Position,0
Label,
TIME,CH1
-2.0000e-05,-0.09
-1.9996e-05,0.042
-1.9992e-05,0.048
-1.9988e-05,-0.086
-1.9984e-05,0.054
-1.9980e-05,0.034
-1.9976e-05,-0.088
-1.9972e-05,0.07
-1.9968e-05,0.02
-1.9964e-05,-0.082
-1.9960e-05,0.074
-1.9956e-05,0.006
-1.9952e-05,-0.08
-1.9948e-05,0.08
-1.9944e-05,-0.006
-1.9940e-05,-0.074
-1.9936e-05,0.088
-1.9932e-05,-0.012
-1.9928e-05,-0.062
-1.9924e-05,0.09
-1.9920e-05,-0.03
-1.9916e-05,-0.05
-1.9912e-05,0.094
-1.9908e-05,-0.046
-1.9904e-05,-0.038
-1.9900e-05,0.088
-1.9896e-05,-0.056
-1.9892e-05,-0.024
-1.9888e-05,0.09
-1.9884e-05,-0.066
-1.9880e-05,-0.01
-1.9876e-05,0.086
-1.9872e-05,-0.074
-1.9868e-05,0.002
-1.9864e-05,0.076
-1.9860e-05,-0.078
-1.9856e-05,0.018
-1.9852e-05,0.064
-1.9848e-05,-0.086
-1.9844e-05,0.032
-1.9840e-05,0.06
-1.9836e-05,-0.09
-1.9832e-05,0.048
-1.9828e-05,0.044
-1.9824e-05,-0.09
-1.9820e-05,0.056
-1.9816e-05,0.036
-1.9812e-05,-0.084
-1.9808e-05,0.07
-1.9804e-05,0.016
-1.9800e-05,-0.084
-1.9796e-05,0.082
-1.9792e-05,0.002
-1.9788e-05,-0.08
-1.9784e-05,0.084
-1.9780e-05,-0.008
-1.9776e-05,-0.068
-1.9772e-05,0.09
-1.9768e-05,-0.022
-1.9764e-05,-0.062
-1.9760e-05,0.092
-1.9756e-05,-0.036
-1.9752e-05,-0.046
-1.9748e-05,0.092
-1.9744e-05,-0.046
-1.9740e-05,-0.034
-1.9736e-05,0.092
-1.9732e-05,-0.052
-1.9728e-05,-0.02
-1.9724e-05,0.09
-1.9720e-05,-0.066
-1.9716e-05,-0.008
-1.9712e-05,0.078
-1.9708e-05,-0.078
-1.9704e-05,0.002
-1.9700e-05,0.072
-1.9696e-05,-0.084
-1.9692e-05,0.02
-1.9688e-05,0.064
-1.9684e-05,-0.086
-1.9680e-05,0.034
-1.9676e-05,0.054
-1.9672e-05,-0.09
-1.9668e-05,0.048
-1.9664e-05,0.042
-1.9660e-05,-0.086
-1.9656e-05,0.056
-1.9652e-05,0.03
-1.9648e-05,-0.096
-1.9644e-05,0.066
-1.9640e-05,0.012
-1.9636e-05,-0.086
-1.9632e-05,0.078
-1.9628e-05,0.008
-1.9624e-05,-0.076
-1.9620e-05,0.084
-1.9616e-05,-0.008
-1.9612e-05,-0.074
-1.9608e-05,0.092
-1.9604e-05,-0.024
-1.9600e-05,-0.058
-1.9596e-05,0.096
-1.9592e-05,-0.032
-1.9588e-05,-0.046
-1.9584e-05,0.09
-1.9580e-05,-0.05
-1.9576e-05,-0.036
-1.9572e-05,0.09
-1.9568e-05,-0.06
-1.9564e-05,-0.022
-1.9560e-05,0.084
-1.9556e-05,-0.064
-1.9552e-05,-0.006
-1.9548e-05,0.082
-1.9544e-05,-0.072
-1.9540e-05,0.008
-1.9536e-05,0.074
-1.9532e-05,-0.084
-1.9528e-05,0.022
-1.9524e-05,0.062
-1.9520e-05,-0.086
-1.9516e-05,0.036
-1.9512e-05,0.056
-1.9508e-05,-0.086
-1.9504e-05,0.046
-1.9500e-05,0.044
-1.9496e-05,-0.086
-1.9492e-05,0.062
-1.9488e-05,0.03
-1.9484e-05,-0.086
-1.9480e-05,0.072
-1.9476e-05,0.014
-1.9472e-05,-0.084
-1.9468e-05,0.08
-1.9464e-05,-0.002
-1.9460e-05,-0.078
-1.9456e-05,0.084
-1.9452e-05,-0.014
-1.9448e-05,-0.068
-1.9444e-05,0.09
-1.9440e-05,-0.024
-1.9436e-05,-0.06
-1.9432e-05,0.092
-1.9428e-05,-0.038
-1.9424e-05,-0.044
-1.9420e-05,0.092
-1.9416e-05,-0.046
-1.9412e-05,-0.034
-1.9408e-05,0.094
-1.9404e-05,-0.062
-1.9400e-05,-0.016
-1.9396e-05,0.088
-1.9392e-05,-0.068
-1.9388e-05,-0.006
-1.9384e-05,0.08
-1.9380e-05,-0.082
-1.9376e-05,0.008
-1.9372e-05,0.076
-1.9368e-05,-0.084
-1.9364e-05,0.026
-1.9360e-05,0.064
-1.9356e-05,-0.084
-1.9352e-05,0.036
-1.9348e-05,0.05
-1.9344e-05,-0.084
-1.9340e-05,0.052
-1.9336e-05,0.036
-1.9332e-05,-0.09
-1.9328e-05,0.064
-1.9324e-05,0.024
-1.9320e-05,-0.088
-1.9316e-05,0.072
-1.9312e-05,0.012
-1.9308e-05,-0.078
-1.9304e-05,0.084
-1.9300e-05,0
-1.9296e-05,-0.072
-1.9292e-05,0.09
-1.9288e-05,-0.014
-1.9284e-05,-0.064
-1.9280e-05,0.092
-1.9276e-05,-0.03
-1.9272e-05,-0.056
-1.9268e-05,0.092
-1.9264e-05,-0.038
-1.9260e-05,-0.04
-1.9256e-05,0.094
-1.9252e-05,-0.048
-1.9248e-05,-0.034
-1.9244e-05,0.086
-1.9240e-05,-0.064
-1.9236e-05,-0.014
-1.9232e-05,0.082
-1.9228e-05,-0.074
-1.9224e-05,0
-1.9220e-05,0.08
-1.9216e-05,-0.078
-1.9212e-05,0.01
-1.9208e-05,0.076
-1.9204e-05,-0.088
-1.9200e-05,0.026
-1.9196e-05,0.062
-1.9192e-05,-0.084
-1.9188e-05,0.038
-1.9184e-05,0.05
-1.9180e-05,-0.086
-1.9176e-05,0.052
-1.9172e-05,0.036
-1.9168e-05,-0.09
-1.9164e-05,0.064
-1.9160e-05,0.026
-1.9156e-05,-0.09
-1.9152e-05,0.074
-1.9148e-05,0.014
-1.9144e-05,-0.08
-1.9140e-05,0.082
-1.9136e-05,-0.002
-1.9132e-05,-0.072
-1.9128e-05,0.086
-1.9124e-05,-0.016
-1.9120e-05,-0.062
-1.9116e-05,0.09
-1.9112e-05,-0.03
-1.9108e-05,-0.056
-1.9104e-05,0.098
-1.9100e-05,-0.042
-1.9096e-05,-0.046
-1.9092e-05,0.096
-1.9088e-05,-0.056
-1.9084e-05,-0.03
-1.9080e-05,0.088
-1.9076e-05,-0.06
-1.9072e-05,-0.012
-1.9068e-05,0.088
-1.9064e-05,-0.074
-1.9060e-05,0
-1.9056e-05,0.076
-1.9052e-05,-0.082
-1.9048e-05,0.012
-1.9044e-05,0.068
-1.9040e-05,-0.084
-1.9036e-05,0.028
-1.9032e-05,0.058
-1.9028e-05,-0.086
-1.9024e-05,0.046
-1.9020e-05,0.044
-1.9016e-05,-0.086
-1.9012e-05,0.052
-1.9008e-05,0.034
-1.9004e-05,-0.088
-1.9000e-05,0.064
-1.8996e-05,0.018
-1.8992e-05,-0.082
-1.8988e-05,0.074
-1.8984e-05,0.008
-1.8980e-05,-0.08
-1.8976e-05,0.084
-1.8972e-05,-0.004
-1.8968e-05,-0.076
-1.8964e-05,0.09
-1.8960e-05,-0.018
-1.8956e-05,-0.064
-1.8952e-05,0.088
-1.8948e-05,-0.03
-1.8944e-05,-0.052
-1.8940e-05,0.094
-1.8936e-05,-0.04
-1.8932e-05,-0.04
-1.8928e-05,0.09
-1.8924e-05,-0.052
-1.8920e-05,-0.026
-1.8916e-05,0.086
-1.8912e-05,-0.064
-1.8908e-05,-0.01
-1.8904e-05,0.086
-1.8900e-05,-0.07
-1.8896e-05,0.002
-1.8892e-05,0.072
-1.8888e-05,-0.08
-1.8884e-05,0.012
-1.8880e-05,0.07
-1.8876e-05,-0.09
-1.8872e-05,0.03
-1.8868e-05,0.056
-1.8864e-05,-0.088
-1.8860e-05,0.042
-1.8856e-05,0.044
-1.8852e-05,-0.088
-1.8848e-05,0.052
-1.8844e-05,0.03
-1.8840e-05,-0.088
-1.8836e-05,0.07
-1.8832e-05,0.018
-1.8828e-05,-0.082
-1.8824e-05,0.074
-1.8820e-05,0.008
-1.8816e-05,-0.078
-1.8812e-05,0.088
-1.8808e-05,-0.008
-1.8804e-05,-0.068
-1.8800e-05,0.09
-1.8796e-05,-0.026
-1.8792e-05,-0.062
-1.8788e-05,0.092
-1.8784e-05,-0.03
-1.8780e-05,-0.052
-1.8776e-05,0.092
-1.8772e-05,-0.044
-1.8768e-05,-0.034
-1.8764e-05,0.092
-1.8760e-05,-0.06
-1.8756e-05,-0.024
-1.8752e-05,0.09
-1.8748e-05,-0.068
-1.8744e-05,-0.012
-1.8740e-05,0.082
-1.8736e-05,-0.074
-1.8732e-05,0.004
-1.8728e-05,0.076
-1.8724e-05,-0.08
-1.8720e-05,0.014
-1.8716e-05,0.066
-1.8712e-05,-0.088
-1.8708e-05,0.03
-1.8704e-05,0.058
-1.8700e-05,-0.082
-1.8696e-05,0.048
-1.8692e-05,0.046
-1.8688e-05,-0.086
-1.8684e-05,0.058
-1.8680e-05,0.032
-1.8676e-05,-0.084
-1.8672e-05,0.07
-1.8668e-05,0.022
-1.8664e-05,-0.084
-1.8660e-05,0.082
-1.8656e-05,0.004
-1.8652e-05,-0.078
-1.8648e-05,0.086
-1.8644e-05,-0.01
-1.8640e-05,-0.068
-1.8636e-05,0.092
-1.8632e-05,-0.026
-1.8628e-05,-0.06
-1.8624e-05,0.092
-1.8620e-05,-0.034
-1.8616e-05,-0.052
-1.8612e-05,0.098
-1.8608e-05,-0.048
-1.8604e-05,-0.036
-1.8600e-05,0.094
-1.8596e-05,-0.056
-1.8592e-05,-0.02
-1.8588e-05,0.086
-1.8584e-05,-0.07
-1.8580e-05,-0.01
-1.8576e-05,0.082
-1.8572e-05,-0.076
-1.8568e-05,0.008
-1.8564e-05,0.078
-1.8560e-05,-0.084
-1.8556e-05,0.026
-1.8552e-05,0.068
-1.8548e-05,-0.086
-1.8544e-05,0.03
-1.8540e-05,0.05
-1.8536e-05,-0.088
-1.8532e-05,0.05
-1.8528e-05,0.044
-1.8524e-05,-0.088
-1.8520e-05,0.058
-1.8516e-05,0.028
-1.8512e-05,-0.086
-1.8508e-05,0.07
-1.8504e-05,0.016
-1.8500e-05,-0.084
-1.8496e-05,0.078
-1.8492e-05,0
-1.8488e-05,-0.076
-1.8484e-05,0.086
-1.8480e-05,-0.014
-1.8476e-05,-0.068
-1.8472e-05,0.092
-1.8468e-05,-0.028
-1.8464e-05,-0.06
-1.8460e-05,0.09
-1.8456e-05,-0.034
-1.8452e-05,-0.046
-1.8448e-05,0.09
-1.8444e-05,-0.046
-1.8440e-05,-0.034
-1.8436e-05,0.094
-1.8432e-05,-0.056
-1.8428e-05,-0.018
-1.8424e-05,0.086
-1.8420e-05,-0.064
-1.8416e-05,-0.006
-1.8412e-05,0.076
-1.8408e-05,-0.078
-1.8404e-05,0.006
-1.8400e-05,0.074
-1.8396e-05,-0.084
-1.8392e-05,0.022
-1.8388e-05,0.058
-1.8384e-05,-0.088
-1.8380e-05,0.034
-1.8376e-05,0.052
-1.8372e-05,-0.092
-1.8368e-05,0.052
-1.8364e-05,0.034
-1.8360e-05,-0.084
-1.8356e-05,0.06
-1.8352e-05,0.026
-1.8348e-05,-0.088
-1.8344e-05,0.074
-1.8340e-05,0.012
-1.8336e-05,-0.082
-1.8332e-05,0.08
-1.8328e-05,0.002
-1.8324e-05,-0.076
-1.8320e-05,0.084
-1.8316e-05,-0.014
-1.8312e-05,-0.06
-1.8308e-05,0.094
-1.8304e-05,-0.024
-1.8300e-05,-0.06
-1.8296e-05,0.096
-1.8292e-05,-0.034
-1.8288e-05,-0.046
-1.8284e-05,0.09
-1.8280e-05,-0.046
-1.8276e-05,-0.03
-1.8272e-05,0.096
-1.8268e-05,-0.06
-1.8264e-05,-0.018
-1.8260e-05,0.092
-1.8256e-05,-0.074
-1.8252e-05,-0.004
-1.8248e-05,0.078
-1.8244e-05,-0.074
-1.8240e-05,0.01
-1.8236e-05,0.076
-1.8232e-05,-0.086
-1.8228e-05,0.026
-1.8224e-05,0.064
-1.8220e-05,-0.084
-1.8216e-05,0.04
-1.8212e-05,0.048
-1.8208e-05,-0.092
-1.8204e-05,0.052
-1.8200e-05,0.036
-1.8196e-05,-0.09
-1.8192e-05,0.066
-1.8188e-05,0.024
-1.8184e-05,-0.084
-1.8180e-05,0.072
-1.8176e-05,0.014
-1.8172e-05,-0.082
-1.8168e-05,0.08
-1.8164e-05,-0.002
-1.8160e-05,-0.078
-1.8156e-05,0.09
-1.8152e-05,-0.018
-1.8148e-05,-0.064
-1.8144e-05,0.092
-1.8140e-05,-0.022
-1.8136e-05,-0.06
-1.8132e-05,0.092
-1.8128e-05,-0.046
-1.8124e-05,-0.038
-1.8120e-05,0.098
-1.8116e-05,-0.052
-1.8112e-05,-0.03
-1.8108e-05,0.092
-1.8104e-05,-0.062
-1.8100e-05,-0.016
-1.8096e-05,0.09
-1.8092e-05,-0.074
-1.8088e-05,-0.002
-1.8084e-05,0.078
-1.8080e-05,-0.082
-1.8076e-05,0.012
-1.8072e-05,0.072
-1.8068e-05,-0.084
-1.8064e-05,0.022
-1.8060e-05,0.054
-1.8056e-05,-0.088
-1.8052e-05,0.04
-1.8048e-05,0.054
-1.8044e-05,-0.086
-1.8040e-05,0.052
-1.8036e-05,0.034
-1.8032e-05,-0.088
-1.8028e-05,0.064
-1.8024e-05,0.022
-1.8020e-05,-0.084
-1.8016e-05,0.074
-1.8012e-05,0.01
-1.8008e-05,-0.078
-1.8004e-05,0.084
-1.8000e-05,-0.006
-1.7996e-05,-0.07
-1.7992e-05,0.086
-1.7988e-05,-0.012
-1.7984e-05,-0.066
-1.7980e-05,0.094
-1.7976e-05,-0.028
-1.7972e-05,-0.052
-1.7968e-05,0.092
-1.7964e-05,-0.04
-1.7960e-05,-0.04
-1.7956e-05,0.09
-1.7952e-05,-0.056
-1.7948e-05,-0.028
-1.7944e-05,0.09
-1.7940e-05,-0.066
-1.7936e-05,-0.014
-1.7932e-05,0.082
-1.7928e-05,-0.074
-1.7924e-05,-0.002
-1.7920e-05,0.076
-1.7916e-05,-0.08
-1.7912e-05,0.016
-1.7908e-05,0.07
-1.7904e-05,-0.084
-1.7900e-05,0.022
-1.7896e-05,0.058
-1.7892e-05,-0.088
-1.7888e-05,0.042
-1.7884e-05,0.046
-1.7880e-05,-0.088
-1.7876e-05,0.052
-1.7872e-05,0.034
-1.7868e-05,-0.084
-1.7864e-05,0.068
-1.7860e-05,0.022
-1.7856e-05,-0.086
-1.7852e-05,0.076
-1.7848e-05,0.006
-1.7844e-05,-0.078
-1.7840e-05,0.086
-1.7836e-05,-0.01
-1.7832e-05,-0.072
-1.7828e-05,0.094
-1.7824e-05,-0.02
-1.7820e-05,-0.056
-1.7816e-05,0.092
-1.7812e-05,-0.032
-1.7808e-05,-0.052
-1.7804e-05,0.094
-1.7800e-05,-0.044
-1.7796e-05,-0.036
-1.7792e-05,0.094
-1.7788e-05,-0.056
-1.7784e-05,-0.024
-1.7780e-05,0.09
-1.7776e-05,-0.068
-1.7772e-05,-0.016
-1.7768e-05,0.084
-1.7764e-05,-0.07
-1.7760e-05,0
-1.7756e-05,0.08
-1.7752e-05,-0.086
-1.7748e-05,0.016
-1.7744e-05,0.068
-1.7740e-05,-0.082
-1.7736e-05,0.03
-1.7732e-05,0.056
-1.7728e-05,-0.09
-1.7724e-05,0.048
-1.7720e-05,0.046
-1.7716e-05,-0.09
-1.7712e-05,0.06
-1.7708e-05,0.03
-1.7704e-05,-0.086
-1.7700e-05,0.07
-1.7696e-05,0.016
-1.7692e-05,-0.086
-1.7688e-05,0.078
-1.7684e-05,0.004
-1.7680e-05,-0.076
-1.7676e-05,0.09
-1.7672e-05,-0.006
-1.7668e-05,-0.068
-1.7664e-05,0.086
-1.7660e-05,-0.022
-1.7656e-05,-0.064
-1.7652e-05,0.096
-1.7648e-05,-0.036
-1.7644e-05,-0.05
-1.7640e-05,0.092
-1.7636e-05,-0.046
-1.7632e-05,-0.042
-1.7628e-05,0.094
-1.7624e-05,-0.06
-1.7620e-05,-0.026
-1.7616e-05,0.09
-1.7612e-05,-0.068
-1.7608e-05,-0.014
-1.7604e-05,0.082
-1.7600e-05,-0.074
-1.7596e-05,0.004
-1.7592e-05,0.08
-1.7588e-05,-0.084
-1.7584e-05,0.02
-1.7580e-05,0.062
-1.7576e-05,-0.084
-1.7572e-05,0.034
-1.7568e-05,0.056
-1.7564e-05,-0.084
-1.7560e-05,0.046
-1.7556e-05,0.04
-1.7552e-05,-0.09
-1.7548e-05,0.054
-1.7544e-05,0.026
-1.7540e-05,-0.088
-1.7536e-05,0.072
-1.7532e-05,0.018
-1.7528e-05,-0.08
-1.7524e-05,0.078
-1.7520e-05,0.006
-1.7516e-05,-0.082
-1.7512e-05,0.084
-1.7508e-05,-0.01
-1.7504e-05,-0.07
-1.7500e-05,0.088
-1.7496e-05,-0.022
-1.7492e-05,-0.058
-1.7488e-05,0.092
-1.7484e-05,-0.032
-1.7480e-05,-0.046
-1.7476e-05,0.094
-1.7472e-05,-0.046
-1.7468e-05,-0.034
-1.7464e-05,0.09
-1.7460e-05,-0.058
-1.7456e-05,-0.02
-1.7452e-05,0.088
-1.7448e-05,-0.066
-1.7444e-05,-0.008
-1.7440e-05,0.086
-1.7436e-05,-0.076
-1.7432e-05,0.008
-1.7428e-05,0.072
-1.7424e-05,-0.076
-1.7420e-05,0.018
-1.7416e-05,0.066
-1.7412e-05,-0.084
-1.7408e-05,0.036
-1.7404e-05,0.054
-1.7400e-05,-0.086
-1.7396e-05,0.05
-1.7392e-05,0.038
-1.7388e-05,-0.09
-1.7384e-05,0.058
-1.7380e-05,0.03
-1.7376e-05,-0.086
-1.7372e-05,0.07
-1.7368e-05,0.012
-1.7364e-05,-0.078
-1.7360e-05,0.082
-1.7356e-05,0
-1.7352e-05,-0.076
-1.7348e-05,0.086
-1.7344e-05,-0.01
-1.7340e-05,-0.07
-1.7336e-05,0.098
-1.7332e-05,-0.028
-1.7328e-05,-0.058
-1.7324e-05,0.096
-1.7320e-05,-0.038
-1.7316e-05,-0.046
-1.7312e-05,0.096
-1.7308e-05,-0.054
-1.7304e-05,-0.034
-1.7300e-05,0.09
-1.7296e-05,-0.058
-1.7292e-05,-0.018
-1.7288e-05,0.088
-1.7284e-05,-0.068
-1.7280e-05,-0.004
-1.7276e-05,0.08
-1.7272e-05,-0.074
-1.7268e-05,0.008
-1.7264e-05,0.072
-1.7260e-05,-0.084
-1.7256e-05,0.026
-1.7252e-05,0.068
-1.7248e-05,-0.086
-1.7244e-05,0.038
-1.7240e-05,0.052
-1.7236e-05,-0.09
-1.7232e-05,0.046
-1.7228e-05,0.038
-1.7224e-05,-0.084
-1.7220e-05,0.066
-1.7216e-05,0.028
-1.7212e-05,-0.084
-1.7208e-05,0.074
-1.7204e-05,0.01
-1.7200e-05,-0.078
-1.7196e-05,0.078
-1.7192e-05,0
-1.7188e-05,-0.078
-1.7184e-05,0.088
-1.7180e-05,-0.008
-1.7176e-05,-0.062
-1.7172e-05,0.092
-1.7168e-05,-0.03
-1.7164e-05,-0.058
-1.7160e-05,0.094
-1.7156e-05,-0.042
-1.7152e-05,-0.044
-1.7148e-05,0.094
-1.7144e-05,-0.052
-1.7140e-05,-0.036
-1.7136e-05,0.092
-1.7132e-05,-0.058
-1.7128e-05,-0.018
-1.7124e-05,0.086
-1.7120e-05,-0.074
-1.7116e-05,0
-1.7112e-05,0.082
-1.7108e-05,-0.082
-1.7104e-05,0.01
-1.7100e-05,0.072
-1.7096e-05,-0.084
-1.7092e-05,0.028
-1.7088e-05,0.062
-1.7084e-05,-0.084
-1.7080e-05,0.042
-1.7076e-05,0.05
-1.7072e-05,-0.09
-1.7068e-05,0.052
-1.7064e-05,0.036
-1.7060e-05,-0.088
-1.7056e-05,0.062
-1.7052e-05,0.02
-1.7048e-05,-0.084
-1.7044e-05,0.074
-1.7040e-05,0.01
-1.7036e-05,-0.078
-1.7032e-05,0.08
-1.7028e-05,0
-1.7024e-05,-0.074
-1.7020e-05,0.088
-1.7016e-05,-0.016
-1.7012e-05,-0.064
-1.7008e-05,0.092
-1.7004e-05,-0.028
-1.7000e-05,-0.056
-1.6996e-05,0.096
-1.6992e-05,-0.042
-1.6988e-05,-0.036
-1.6984e-05,0.094
-1.6980e-05,-0.05
-1.6976e-05,-0.028
-1.6972e-05,0.088
-1.6968e-05,-0.066
-1.6964e-05,-0.014
-1.6960e-05,0.082
-1.6956e-05,-0.074
-1.6952e-05,0
-1.6948e-05,0.076
-1.6944e-05,-0.078
-1.6940e-05,0.008
-1.6936e-05,0.072
-1.6932e-05,-0.086
-1.6928e-05,0.028
-1.6924e-05,0.06
-1.6920e-05,-0.086
-1.6916e-05,0.04
-1.6912e-05,0.046
-1.6908e-05,-0.09
-1.6904e-05,0.056
-1.6900e-05,0.032
-1.6896e-05,-0.086
-1.6892e-05,0.068
-1.6888e-05,0.02
-1.6884e-05,-0.09
-1.6880e-05,0.076
-1.6876e-05,0.004
-1.6872e-05,-0.076
-1.6868e-05,0.082
-1.6864e-05,-0.006
-1.6860e-05,-0.072
-1.6856e-05,0.088
-1.6852e-05,-0.02
-1.6848e-05,-0.064
-1.6844e-05,0.096
-1.6840e-05,-0.03
-1.6836e-05,-0.05
-1.6832e-05,0.094
-1.6828e-05,-0.04
-1.6824e-05,-0.04
-1.6820e-05,0.09
-1.6816e-05,-0.06
-1.6812e-05,-0.026
-1.6808e-05,0.086
-1.6804e-05,-0.066
-1.6800e-05,-0.012
-1.6796e-05,0.086
-1.6792e-05,-0.076
-1.6788e-05,0.002
-1.6784e-05,0.074
-1.6780e-05,-0.08
-1.6776e-05,0.014
-1.6772e-05,0.066
-1.6768e-05,-0.084
-1.6764e-05,0.03
-1.6760e-05,0.058
-1.6756e-05,-0.086
-1.6752e-05,0.042
-1.6748e-05,0.046
-1.6744e-05,-0.088
-1.6740e-05,0.054
-1.6736e-05,0.03
-1.6732e-05,-0.088
-1.6728e-05,0.068
-1.6724e-05,0.018
-1.6720e-05,-0.086
-1.6716e-05,0.074
-1.6712e-05,0.002
-1.6708e-05,-0.076
-1.6704e-05,0.082
-1.6700e-05,-0.006
-1.6696e-05,-0.074
-1.6692e-05,0.092
-1.6688e-05,-0.02
-1.6684e-05,-0.058
-1.6680e-05,0.094
-1.6676e-05,-0.028
-1.6672e-05,-0.05
-1.6668e-05,0.094
-1.6664e-05,-0.046
-1.6660e-05,-0.038
-1.6656e-05,0.094
-1.6652e-05,-0.056
-1.6648e-05,-0.028
-1.6644e-05,0.092
-1.6640e-05,-0.062
-1.6636e-05,-0.014
-1.6632e-05,0.08
-1.6628e-05,-0.074
-1.6624e-05,0.004
-1.6620e-05,0.076
-1.6616e-05,-0.084
-1.6612e-05,0.018
-1.6608e-05,0.068
-1.6604e-05,-0.084
-1.6600e-05,0.034
-1.6596e-05,0.052
-1.6592e-05,-0.092
-1.6588e-05,0.042
-1.6584e-05,0.044
-1.6580e-05,-0.09
-1.6576e-05,0.06
-1.6572e-05,0.03
-1.6568e-05,-0.084
-1.6564e-05,0.072
-1.6560e-05,0.02
-1.6556e-05,-0.084
-1.6552e-05,0.08
-1.6548e-05,0
-1.6544e-05,-0.08
-1.6540e-05,0.084
-1.6536e-05,-0.01
-1.6532e-05,-0.07
-1.6528e-05,0.09
-1.6524e-05,-0.024
-1.6520e-05,-0.056
-1.6516e-05,0.094
-1.6512e-05,-0.032
-1.6508e-05,-0.048
-1.6504e-05,0.094
-1.6500e-05,-0.042
-1.6496e-05,-0.036
-1.6492e-05,0.086
-1.6488e-05,-0.062
-1.6484e-05,-0.02
-1.6480e-05,0.09
-1.6476e-05,-0.062
-1.6472e-05,-0.008
-1.6468e-05,0.08
-1.6464e-05,-0.074
-1.6460e-05,0.006
-1.6456e-05,0.076
-1.6452e-05,-0.076
-1.6448e-05,0.02
-1.6444e-05,0.064
-1.6440e-05,-0.088
-1.6436e-05,0.028
-1.6432e-05,0.056
-1.6428e-05,-0.09
-1.6424e-05,0.044
-1.6420e-05,0.046
-1.6416e-05,-0.088
-1.6412e-05,0.062
-1.6408e-05,0.028
-1.6404e-05,-0.082
-1.6400e-05,0.072
-1.6396e-05,0.014
-1.6392e-05,-0.084
-1.6388e-05,0.08
-1.6384e-05,0.002
-1.6380e-05,-0.078
-1.6376e-05,0.082
-1.6372e-05,-0.012
-1.6368e-05,-0.066
-1.6364e-05,0.09
-1.6360e-05,-0.028
-1.6356e-05,-0.058
-1.6352e-05,0.092
-1.6348e-05,-0.036
-1.6344e-05,-0.046
-1.6340e-05,0.09
-1.6336e-05,-0.052
-1.6332e-05,-0.034
-1.6328e-05,0.09
-1.6324e-05,-0.062
-1.6320e-05,-0.02
-1.6316e-05,0.086
-1.6312e-05,-0.07
-1.6308e-05,-0.012
-1.6304e-05,0.076
-1.6300e-05,-0.07
-1.6296e-05,0.012
-1.6292e-05,0.072
-1.6288e-05,-0.082
-1.6284e-05,0.024
-1.6280e-05,0.062
-1.6276e-05,-0.088
-1.6272e-05,0.04
-1.6268e-05,0.044
-1.6264e-05,-0.088
-1.6260e-05,0.052
-1.6256e-05,0.036
-1.6252e-05,-0.09
-1.6248e-05,0.064
-1.6244e-05,0.026
-1.6240e-05,-0.088
-1.6236e-05,0.074
-1.6232e-05,0.012
-1.6228e-05,-0.084
-1.6224e-05,0.076
-1.6220e-05,0
-1.6216e-05,-0.076
-1.6212e-05,0.086
-1.6208e-05,-0.012
-1.6204e-05,-0.066
-1.6200e-05,0.088
-1.6196e-05,-0.03
-1.6192e-05,-0.056
-1.6188e-05,0.102
-1.6184e-05,-0.04
-1.6180e-05,-0.042
-1.6176e-05,0.094
-1.6172e-05,-0.05
-1.6168e-05,-0.034
-1.6164e-05,0.09
-1.6160e-05,-0.056
-1.6156e-05,-0.018
-1.6152e-05,0.088
-1.6148e-05,-0.07
-1.6144e-05,0
-1.6140e-05,0.078
-1.6136e-05,-0.074
-1.6132e-05,0.008
-1.6128e-05,0.072
-1.6124e-05,-0.082
-1.6120e-05,0.02
-1.6116e-05,0.058
-1.6112e-05,-0.084
-1.6108e-05,0.034
-1.6104e-05,0.05
-1.6100e-05,-0.088
-1.6096e-05,0.05
-1.6092e-05,0.038
-1.6088e-05,-0.084
-1.6084e-05,0.06
-1.6080e-05,0.022
-1.6076e-05,-0.08
-1.6072e-05,0.072
-1.6068e-05,0.012
-1.6064e-05,-0.08
-1.6060e-05,0.082
-1.6056e-05,-0.002
-1.6052e-05,-0.072
-1.6048e-05,0.092
-1.6044e-05,-0.014
-1.6040e-05,-0.064
-1.6036e-05,0.096
-1.6032e-05,-0.028
-1.6028e-05,-0.052
-1.6024e-05,0.09
-1.6020e-05,-0.044
-1.6016e-05,-0.044
-1.6012e-05,0.094
-1.6008e-05,-0.052
-1.6004e-05,-0.03
-1.6000e-05,0.088
-1.5996e-05,-0.066
-1.5992e-05,-0.014
-1.5988e-05,0.084
-1.5984e-05,-0.072
-1.5980e-05,-0.006
-1.5976e-05,0.078
-1.5972e-05,-0.08
-1.5968e-05,0.012
-1.5964e-05,0.066
-1.5960e-05,-0.084
-1.5956e-05,0.028
-1.5952e-05,0.06
-1.5948e-05,-0.084
-1.5944e-05,0.042
-1.5940e-05,0.048
-1.5936e-05,-0.092
-1.5932e-05,0.058
-1.5928e-05,0.032
-1.5924e-05,-0.088
-1.5920e-05,0.066
-1.5916e-05,0.018
-1.5912e-05,-0.086
-1.5908e-05,0.072
-1.5904e-05,0.012
-1.5900e-05,-0.076
-1.5896e-05,0.082
-1.5892e-05,-0.002
-1.5888e-05,-0.072
-1.5884e-05,0.086
-1.5880e-05,-0.016
-1.5876e-05,-0.064
-1.5872e-05,0.094
-1.5868e-05,-0.028
-1.5864e-05,-0.05
-1.5860e-05,0.088
-1.5856e-05,-0.046
-1.5852e-05,-0.038
-1.5848e-05,0.092
-1.5844e-05,-0.054
-1.5840e-05,-0.026
-1.5836e-05,0.09
-1.5832e-05,-0.062
-1.5828e-05,-0.014
-1.5824e-05,0.086
-1.5820e-05,-0.072
-1.5816e-05,0.002
-1.5812e-05,0.076
-1.5808e-05,-0.084
-1.5804e-05,0.016
-1.5800e-05,0.074
-1.5796e-05,-0.084
-1.5792e-05,0.028
-1.5788e-05,0.056
-1.5784e-05,-0.09
-1.5780e-05,0.038
-1.5776e-05,0.046
-1.5772e-05,-0.092
-1.5768e-05,0.056
-1.5764e-05,0.03
-1.5760e-05,-0.088
-1.5756e-05,0.066
-1.5752e-05,0.02
-1.5748e-05,-0.09
-1.5744e-05,0.07
-1.5740e-05,0.006
-1.5736e-05,-0.084
-1.5732e-05,0.092
-1.5728e-05,-0.006
-1.5724e-05,-0.076
-1.5720e-05,0.092
-1.5716e-05,-0.024
-1.5712e-05,-0.064
-1.5708e-05,0.086
-1.5704e-05,-0.034
-1.5700e-05,-0.054
-1.5696e-05,0.096
-1.5692e-05,-0.044
